/* XPM */
static char * al_xpm[] = {
"48 48 277 2",
"  	c None",
". 	c #FF2B14",
"+ 	c #FF2C15",
"@ 	c #FF2A14",
"# 	c #FF2914",
"$ 	c #FF2813",
"% 	c #D7200F",
"& 	c #D8200F",
"* 	c #FF2D16",
"= 	c #FF2713",
"- 	c #C31D0E",
"; 	c #CD1E0E",
"> 	c #FF2913",
", 	c #FF2612",
"' 	c #DB200F",
") 	c #781108",
"! 	c #92150A",
"~ 	c #FE2512",
"{ 	c #FD2512",
"] 	c #FC2512",
"^ 	c #FB2512",
"/ 	c #F62411",
"( 	c #E02110",
"_ 	c #AB190C",
": 	c #580D06",
"< 	c #811309",
"[ 	c #F92512",
"} 	c #E92210",
"| 	c #E62210",
"1 	c #E52210",
"2 	c #DE2110",
"3 	c #C71D0E",
"4 	c #98160B",
"5 	c #520C05",
"6 	c #801309",
"7 	c #F22411",
"8 	c #E32110",
"9 	c #DD200F",
"0 	c #C01C0D",
"a 	c #93150A",
"b 	c #510C05",
"c 	c #F12311",
"d 	c #E22110",
"e 	c #DC200F",
"f 	c #D61F0F",
"g 	c #D51F0E",
"h 	c #B61A0C",
"i 	c #D81F0F",
"j 	c #4E0B05",
"k 	c #140200",
"l 	c #5C0D06",
"m 	c #7A1108",
"n 	c #751007",
"o 	c #590C06",
"p 	c #130200",
"q 	c #510B05",
"r 	c #98160A",
"s 	c #2B0602",
"t 	c #B91B0C",
"u 	c #771108",
"v 	c #AF190C",
"w 	c #250502",
"x 	c #180001",
"y 	c #0D0000",
"z 	c #000000",
"A 	c #6A0F07",
"B 	c #660E06",
"C 	c #150000",
"D 	c #B51A0C",
"E 	c #6F1007",
"F 	c #BE1B0D",
"G 	c #240502",
"H 	c #A1170B",
"I 	c #97160A",
"J 	c #050000",
"K 	c #CB1D0E",
"L 	c #500B05",
"M 	c #410904",
"N 	c #120201",
"O 	c #BD1B0D",
"P 	c #B71A0C",
"Q 	c #130201",
"R 	c #430904",
"S 	c #4F0B05",
"T 	c #C71D0D",
"U 	c #020000",
"V 	c #9F170B",
"W 	c #8F1509",
"X 	c #701007",
"Y 	c #851309",
"Z 	c #711007",
"` 	c #060000",
" .	c #821308",
"..	c #7B1108",
"+.	c #721007",
"@.	c #6B0F07",
"#.	c #8B1409",
"$.	c #070000",
"%.	c #CE1E0E",
"&.	c #570C05",
"*.	c #1C0301",
"=.	c #B31A0C",
"-.	c #190301",
";.	c #7D1208",
">.	c #761108",
",.	c #8A1409",
"'.	c #C51D0D",
").	c #5B0D06",
"!.	c #470A04",
"~.	c #3C0803",
"{.	c #901509",
"].	c #0A0100",
"^.	c #2D0602",
"/.	c #270502",
"(.	c #0D0100",
"_.	c #94150A",
":.	c #110201",
"<.	c #3A0803",
"[.	c #A8180B",
"}.	c #620E06",
"|.	c #8D1409",
"1.	c #590C05",
"2.	c #5B0D05",
"3.	c #8F1409",
"4.	c #B0190C",
"5.	c #6D0F07",
"6.	c #010000",
"7.	c #040000",
"8.	c #340703",
"9.	c #9A160A",
"0.	c #370703",
"a.	c #3E0903",
"b.	c #310603",
"c.	c #350703",
"d.	c #861309",
"e.	c #560C05",
"f.	c #1A0301",
"g.	c #080000",
"h.	c #150200",
"i.	c #5A0D05",
"j.	c #871309",
"k.	c #330703",
"l.	c #791108",
"m.	c #BA1B0C",
"n.	c #150201",
"o.	c #0E0100",
"p.	c #3D0804",
"q.	c #0B0100",
"r.	c #160201",
"s.	c #D31F0E",
"t.	c #AA190B",
"u.	c #A0170B",
"v.	c #831208",
"w.	c #240402",
"x.	c #1E0401",
"y.	c #530B05",
"z.	c #090000",
"A.	c #540C05",
"B.	c #230401",
"C.	c #7F1208",
"D.	c #C01B0D",
"E.	c #4C0A05",
"F.	c #801208",
"G.	c #480A04",
"H.	c #841309",
"I.	c #220401",
"J.	c #C61D0D",
"K.	c #741007",
"L.	c #2E0602",
"M.	c #520B05",
"N.	c #400904",
"O.	c #2C0602",
"P.	c #761107",
"Q.	c #C21C0D",
"R.	c #690F07",
"S.	c #0F0100",
"T.	c #640E06",
"U.	c #C91D0E",
"V.	c #630E06",
"W.	c #A9180B",
"X.	c #200401",
"Y.	c #360703",
"Z.	c #6C1007",
"`.	c #5E0D06",
" +	c #220402",
".+	c #A4180B",
"++	c #610E06",
"@+	c #CA1D0E",
"#+	c #210401",
"$+	c #1D0301",
"%+	c #AD190B",
"&+	c #D01E0E",
"*+	c #5A0D06",
"=+	c #250402",
"-+	c #B81A0C",
";+	c #2F0602",
">+	c #7C1208",
",+	c #D71F0F",
"'+	c #821208",
")+	c #C41C0D",
"!+	c #BB1B0C",
"~+	c #9D160A",
"{+	c #1F0401",
"]+	c #96160A",
"^+	c #550C05",
"/+	c #390803",
"(+	c #CF1E0E",
"_+	c #140201",
":+	c #811308",
"<+	c #030000",
"[+	c #6E0F07",
"}+	c #D11E0E",
"|+	c #751107",
"1+	c #610D06",
"2+	c #650E06",
"3+	c #580C05",
"4+	c #D91F0F",
"5+	c #420904",
"6+	c #B1190C",
"7+	c #320702",
"8+	c #A0170A",
"9+	c #A6180B",
"0+	c #300602",
"a+	c #AB190B",
"b+	c #DA200F",
"c+	c #731007",
"d+	c #100200",
"e+	c #180301",
"f+	c #C51C0D",
"g+	c #090100",
"h+	c #380803",
"i+	c #5F0D06",
"j+	c #831309",
"k+	c #260502",
"l+	c #AE190C",
"m+	c #280502",
"n+	c #8C1409",
"o+	c #290502",
"p+	c #C61C0D",
"q+	c #881309",
"r+	c #B41A0C",
"s+	c #A7180B",
"t+	c #4B0A04",
"u+	c #3E0804",
"v+	c #3F0904",
"w+	c #BC1B0D",
"x+	c #CC1D0E",
"y+	c #300603",
"z+	c #D31E0E",
"A+	c #D21E0E",
"B+	c #F82411",
"C+	c #D9200F",
"D+	c #D31F0F",
"E+	c #BD1C0D",
"F+	c #ED2311",
"G+	c #BC1C0D",
"H+	c #B61B0D",
"I+	c #B41A0D",
"J+	c #AD190C",
"K+	c #90150A",
"L+	c #E12110",
"M+	c #821309",
"N+	c #7D1209",
"O+	c #7E1209",
"P+	c #490A05",
"Q+	c #B01A0C",
"R+	c #94160A",
"S+	c #2E0603",
"T+	c #2D0603",
"U+	c #300703",
"V+	c #230502",
"W+	c #B91B0D",
"X+	c #A7180C",
"Y+	c #660F07",
"Z+	c #640F07",
"`+	c #630E07",
" @	c #701008",
". + @ # # # # # # # # # # # # # # # # # # # # # # # # # # # # # # # # # # # # # # # # # # $ % & ",
"+ * + @ @ @ @ @ @ @ @ @ @ @ @ @ @ @ @ @ @ @ @ @ @ @ @ @ @ @ @ @ @ @ @ @ @ @ @ @ @ @ @ @ @ = - ; ",
"= $ @ # > $ $ $ $ $ $ $ $ $ $ $ $ $ $ $ $ $ $ $ $ $ $ $ $ $ $ $ $ $ $ $ $ $ $ $ $ $ $ $ , ' ) ! ",
"~ ~ = , { ] ] ] ] ] ] ] ] ] ] ] ] ] ] ] ] ] ] ] ] ] ] ] ] ] ] ] ] ] ] ] ] ] ] ] ] ] ^ / ( _ : < ",
"~ [ , / } | 1 1 1 1 1 1 1 1 1 1 1 1 1 1 1 1 1 1 1 1 1 1 1 1 1 1 1 1 1 1 1 1 1 1 1 1 1 2 3 4 5 6 ",
"~ [ { 7 8 9 9 9 9 9 9 9 9 9 9 9 9 9 9 9 9 9 9 9 9 9 9 9 9 9 9 9 9 9 9 9 9 9 9 9 9 9 9 % 0 a b 6 ",
"~ [ { c d 9 9 9 9 9 9 9 9 9 9 9 9 9 9 9 9 9 9 9 9 9 9 e 9 9 9 9 9 9 9 9 9 9 9 9 9 9 9 f 0 a b 6 ",
"~ [ { c d 9 9 9 9 9 9 9 9 g h 9 e 9 i j k l m 9 e n o p q i 9 e 9 h g 9 9 9 9 9 9 9 9 f 0 a b 6 ",
"~ [ { c d 9 9 9 9 9 9 9 9 r s t u v w x y z A 9 9 B z y C w D E F G H 9 9 9 9 9 9 9 9 f 0 a b 6 ",
"~ [ { c d 9 9 9 9 9 9 9 9 I J K L M N z z z J O P J z z z Q R S T U V 9 9 9 9 9 9 9 9 f 0 a b 6 ",
"~ [ { c d 9 9 9 9 9 9 9 9 K J W 9 F X Y Z ` U  ...U ` +.Y @.0 9 #.$.%.9 9 9 9 9 9 9 9 f 0 a b 6 ",
"~ [ { c d 9 9 9 9 9 9 9 9 9 &.*.=.0 -.p ;.>.z ,.Y z m u p -.'.=.-.).9 9 9 9 9 9 9 9 9 f 0 a b 6 ",
"~ [ { c d 9 9 9 9 9 9 9 9 a !.~.z Q z z z {.].^./.(._.z z z :.z !.<.r 9 9 9 9 9 9 9 9 f 0 a b 6 ",
"~ [ { c d 9 9 9 9 9 9 9 9 [.z }.|.1.z z z +.<.z z ~.Z z z z 2.3.l z 4.9 9 9 9 9 9 9 9 f 0 a b 6 ",
"~ [ { c d 9 9 9 9 9 9 9 9 i 5.6.7.8.z z z 9.0.z z a._.z z z b.6.U E i 9 9 9 9 9 9 9 9 f 0 a b 6 ",
"~ [ { c d 9 9 9 9 9 9 9 9 Z c.d.e.f.z z z >.J z z g.u z z z h.i.j.k.l.9 9 9 9 9 9 9 9 f 0 a b 6 ",
"~ [ { c d 9 9 9 9 9 9 9 9 m.n.z o.p.z z z z z z z z z z z z M q.z r.0 9 9 9 9 9 9 9 9 f 0 a b 6 ",
"~ [ { c d 9 9 9 9 9 9 9 9 s.t.u.v./.].z z z z z z z z z z (.w.d.u.[.s.9 9 9 9 9 9 9 9 f 0 a b 6 ",
"~ [ { c d 9 9 9 9 9 9 9 9 ) 6.x./.y.q.z z z z z z z z z z z.A.B.x.6.C.9 9 9 9 9 9 9 9 f 0 a b 6 ",
"~ [ { c d 9 9 9 9 9 9 9 9 D.G E.F.G./.z z z z z z z z z z /.!.H.E.I.J.9 9 9 9 9 9 9 9 f 0 a b 6 ",
"~ [ { c d 9 9 9 9 9 9 9 9 0 Y K.L.a.M.z z z z z z z z z z q N.O.P.H.Q.9 9 9 9 9 9 9 9 f 0 a b 6 ",
"~ [ { c d 9 9 9 9 9 9 9 9 R.z S.T.S I.X z z z z z z z z X w.q }.q.z X 9 9 9 9 9 9 9 9 f 0 a b 6 ",
"~ [ { c d 9 9 9 9 9 9 9 9 U.V.W.X.).u +.Y.z z z z z z k.u Z.`. +.+++@+9 9 9 9 9 9 9 9 f 0 a b 6 ",
"~ [ { c d 9 9 9 9 9 9 9 9 d.Y.#+}.$+s.0.W.6.z z z z 6.%+c.&+x.*+=+0.#.9 9 9 9 9 9 9 9 f 0 a b 6 ",
"~ [ { c d 9 9 9 9 9 9 9 9 ) z f.+.T.-+).c.;+z z z z Y.~.&.t `.u f.z >+9 9 9 9 9 9 9 9 f 0 a b 6 ",
"~ [ { c d 9 9 9 9 9 9 9 9 ,+'+)+*.!+@.~+P {+z z z z  +D ]+E h I.)+'+,+9 9 9 9 9 9 9 9 f 0 a b 6 ",
"~ [ { c d 9 9 9 9 9 9 9 9 W.u ^+/+,.n.s.K.z z z z z z ) (+_+a 8.e.u W.9 9 9 9 9 9 9 9 f 0 a b 6 ",
"~ [ { c d 9 9 9 9 9 9 9 9 A z 6.[.`.H.:+U <+A.z z ^+6.7.H. .`.V z z [+9 9 9 9 9 9 9 9 f 0 a b 6 ",
"~ [ { c d 9 9 9 9 9 9 9 9 }+&.3.9 9 |+z z +.1+z z 2+E z z ;.9 9 j.3+}+9 9 9 9 9 9 9 9 f 0 a b 6 ",
"~ [ { c d 9 9 9 9 9 9 9 9 9 4+5+6+9 `.z 7+8+<+z z <+9+0+z @.9 a+5+b+9 9 9 9 9 9 9 9 9 f 0 a b 6 ",
"~ [ { c d 9 9 9 9 9 9 9 9 9 a+A.g.c+-.M.m S.z z z z d+u M.e+>.$.e.4.9 9 9 9 9 9 9 9 9 f 0 a b 6 ",
"~ [ { c d 9 9 9 9 9 9 9 9 9 ..6.z (.f+1.g+h+z z z z /+(.i+Q.J z 7.j+9 9 9 9 9 9 9 9 9 f 0 a b 6 ",
"~ [ { c d 9 9 9 9 9 9 9 9 9 9 0.z z 6+&+.+k+z z z z /.9+}+l+z z h+9 9 9 9 9 9 9 9 9 9 f 0 a b 6 ",
"~ [ { c d 9 9 9 9 9 9 9 9 9 9 m+n+e.5.0 z ++m+U U o+l z p+A o q+O.9 9 9 9 9 9 9 9 9 9 f 0 a b 6 ",
"~ [ { c d 9 9 9 9 9 9 9 9 9 9 r+%.e 0 ' s+V t+u+v+!.V s+e w+e x+h 9 9 9 9 9 9 9 9 9 9 f 0 a b 6 ",
"~ [ { c d 9 9 9 9 9 9 9 9 9 9 9 9 9 9 9 -+7.9+y+8.H J )+9 9 9 9 9 9 9 9 9 9 9 9 9 9 9 f 0 a b 6 ",
"~ [ { c d 9 9 9 9 9 9 9 9 9 9 9 9 9 9 9 i a+%.U ` z+a+4+9 9 9 9 9 9 9 9 9 9 9 9 9 9 9 f 0 a b 6 ",
"~ [ { c d 9 9 9 9 9 9 9 9 9 9 9 9 9 9 9 9 9 l.z z F.9 9 9 9 9 9 9 9 9 9 9 9 9 9 9 9 9 f 0 a b 6 ",
"~ [ { c d 9 9 9 9 9 9 9 9 9 9 9 9 9 9 9 9 9 a+U <+a+9 9 9 9 9 9 9 9 9 9 9 9 9 9 9 9 9 f 0 a b 6 ",
"~ [ { c d 9 9 9 9 9 9 9 9 9 9 9 9 9 9 9 9 9 9 R.+.9 9 9 9 9 9 9 9 9 9 9 9 9 9 9 9 9 9 f 0 a b 6 ",
"~ [ { c d 9 9 9 9 9 9 9 9 9 9 9 9 9 9 9 9 9 9 %.A+9 9 9 9 9 9 9 9 9 9 9 9 9 9 9 9 9 9 f 0 a b 6 ",
"~ [ { c d 9 9 9 9 9 9 9 9 9 9 9 9 9 9 9 9 9 9 9 9 9 9 9 9 9 9 9 9 9 9 9 9 9 9 9 9 9 9 f 0 a b 6 ",
"~ [ { c d e 9 9 9 9 9 9 9 9 9 9 9 9 9 9 9 9 9 9 9 9 9 9 9 9 9 9 9 9 9 9 9 9 9 9 9 9 e f 0 a b 6 ",
"~ B+^ } C+D+D+D+D+D+D+D+D+D+D+D+D+D+D+D+D+D+D+D+D+D+D+D+D+D+D+D+D+D+D+D+D+D+D+D+D+D+D+%.E+a b 6 ",
"{ / F+&+G+H+I+I+I+I+I+I+I+I+I+I+I+I+I+I+I+I+I+I+I+I+I+I+I+I+I+I+I+I+I+I+I+I+I+I+I+I+I+I+J+K+b 6 ",
"c L+G+a M+N+N+N+N+N+N+N+N+N+N+N+N+N+N+N+N+N+N+N+N+N+N+N+N+N+N+N+N+N+N+N+N+N+N+N+N+N+N+O+6 ) P+) ",
"Q+R+5 8.S+T+T+T+T+T+T+T+T+T+T+T+T+T+T+T+T+T+T+T+T+T+T+T+T+T+T+T+T+T+T+T+T+T+T+T+T+T+T+T+S+U+V+5 ",
"W+X+>.Y+Z+Z+Z+Z+Z+Z+Z+Z+Z+Z+Z+Z+Z+Z+Z+Z+Z+Z+Z+Z+Z+Z+Z+Z+Z+Z+Z+Z+Z+Z+Z+Z+Z+Z+Z+Z+Z+Z+Z+Z+Z+`+b  @"};
