/* XPM */
static char * cu_xpm[] = {
"48 48 61 1",
" 	c None",
".	c #1111B8",
"+	c #1414D5",
"@	c #1111BA",
"#	c #0F0FA8",
"$	c #0D0D92",
"%	c #FF0000",
"&	c #1818FF",
"*	c #1717FD",
"=	c #1313D0",
"-	c #F50000",
";	c #1616F0",
">	c #1616F2",
",	c #1515E9",
"'	c #0E0E9E",
")	c #DE0000",
"!	c #1515E3",
"~	c #1515E4",
"{	c #1414DE",
"]	c #1313CC",
"^	c #0B0B7E",
"/	c #1414D8",
"(	c #1313CB",
"_	c #0A0A72",
":	c #1313D1",
"<	c #1313C8",
"[	c #0B0B76",
"}	c #FDFDFD",
"|	c #F9F9F9",
"1	c #EFEFEF",
"2	c #DEDEDE",
"3	c #8F8F8F",
"4	c #FE0000",
"5	c #FC0000",
"6	c #1212CA",
"7	c #1212C7",
"8	c #1111BF",
"9	c #1010B1",
"0	c #FFFFFF",
"a	c #FEFEFE",
"b	c #FFC5C5",
"c	c #FDBABA",
"d	c #FEBCBC",
"e	c #1313D3",
"f	c #1414DB",
"g	c #1212C9",
"h	c #1212C6",
"i	c #1111BD",
"j	c #1515E7",
"k	c #1414DA",
"l	c #1212C2",
"m	c #1010AF",
"n	c #1010AB",
"o	c #1010AC",
"p	c #0D0D8B",
"q	c #1010B5",
"r	c #0C0C82",
"s	c #090964",
"t	c #080858",
"u	c #08085C",
"v	c #08085B",
".+@############################################$",
"%&&********************************************=",
"-%;>;;;;;;;;;;;;;;;;;;;;;;;;;;;;;;;;;;;;;;;;;;,'",
")%%!~~~~~~~~~~~~~~~~~~~~~~~~~~~~~~~~~~~~~~~~~{]^",
")%%%////////////////////////////////////////+(._",
")%%%%+++++++++++++++++++++++++++++++++++++++:<.[",
")%%%%%}}}}}}}}}}}}}}}}}}}}}}}}}}}}}}}}}}}}}}|123",
")%%%%%4}}}}}}}}}}}}}}}}}}}}}}}}}}}}}}}}}}}}}|123",
")%%%%%45}}}}}}}}}}}}}}}}}}}}}}}}}}}}}}}}}}}}|123",
")%%%%%455}}}}}}}}}}}}}}}}}}}}}}}}}}}}}}}}}}}|123",
")%%%%%4555}}}}}}}}}}}}}}}}}}}}}}}}}}}}}}}}}}|123",
")%%%%%45555666666666666666666666666666666666789_",
")%%%%%45555566666666666666666666666666666666789_",
")%%%%%45555556666666666666666666666666666666789_",
")%%%%%45555555666666666666666666666666666666789_",
")%%%%%45555555566666666666666666666666666666789_",
")%%%%%4555555555}}}}}}}}}}}}}}}}}}}}}}}}}}}}|123",
")%%%%%45555555555}}}}}}}}}}}}}}}}}}}}}}}}}}}|123",
")%%%%%455555555555}}}}}}}}}}}}}}}}}}}}}}}}}}|123",
")%%%%%455}555555555}}}}}}}}}}}}}}}}}}}}}}}}}|123",
")%%%%%455}5555555555}}}}}}}}}}}}}}}}}}}}}}}}|123",
")%%%%%45}}}555555555566666666666666666666666789_",
")%%%00a}}}}}}}}55555556666666666666666666666789_",
")%%%%ba}}}}}}c555555555666666666666666666666789_",
")%%%%%4c}}}c55555555555666666666666666666666789_",
")%%%%%4}}}}}55555555556666666666666666666666789_",
")%%%%%d}}c}}c55555555}}}}}}}}}}}}}}}}}}}}}}}|123",
")%%%%%a}555}}5555555}}}}}}}}}}}}}}}}}}}}}}}}|123",
")%%%%%a55555}555555}}}}}}}}}}}}}}}}}}}}}}}}}|123",
")%%%%%455555555555}}}}}}}}}}}}}}}}}}}}}}}}}}|123",
")%%%%%45555555555}}}}}}}}}}}}}}}}}}}}}}}}}}}|123",
")%%%%%45555555556666666666666666666666666666789_",
")%%%%%45555555566666666666666666666666666666789_",
")%%%%%45555555666666666666666666666666666666789_",
")%%%%%45555556666666666666666666666666666666789_",
")%%%%%45555566666666666666666666666666666666789_",
")%%%%%45555}}}}}}}}}}}}}}}}}}}}}}}}}}}}}}}}}|123",
")%%%%%4555}}}}}}}}}}}}}}}}}}}}}}}}}}}}}}}}}}|123",
")%%%%%455}}}}}}}}}}}}}}}}}}}}}}}}}}}}}}}}}}}|123",
")%%%%%45}}}}}}}}}}}}}}}}}}}}}}}}}}}}}}}}}}}}|123",
")%%%%%4}}}}}}}}}}}}}}}}}}}}}}}}}}}}}}}}}}}}}|123",
")%%%%%66666666666666666666666666666666666666789_",
")%%%%]66666666666666666666666666666666666666789_",
")%%%e]66666666666666666666666666666666666666789_",
")%%f:ghhhhhhhhhhhhhhhhhhhhhhhhhhhhhhhhhhhhhhh89_",
")%!+7i@@@@@@@@@@@@@@@@@@@@@@@@@@@@@@@@@@@@@@@@9_",
")jklm########################################no_",
"pqrsttttttttttttttttttttttttttttttttttttttttttuv"};
