/* XPM */
static char * us_xpm[] = {
"48 48 457 2",
"  	c None",
". 	c #142BA0",
"+ 	c #152CA6",
"@ 	c #142A9F",
"# 	c #14299C",
"$ 	c #FF0822",
"% 	c #FF0000",
"& 	c #F70000",
"* 	c #F80000",
"= 	c #152CA5",
"- 	c #4256C9",
"; 	c #3D4FBA",
"> 	c #142A9E",
", 	c #2D41AE",
"' 	c #2539A9",
") 	c #FF0922",
"! 	c #E00000",
"~ 	c #EC0000",
"{ 	c #3244A8",
"] 	c #E7EDFF",
"^ 	c #2A3FAD",
"/ 	c #182C9E",
"( 	c #DEE5FF",
"_ 	c #5062BE",
": 	c #132898",
"< 	c #9FAAEA",
"[ 	c #929FE3",
"} 	c #5868C3",
"| 	c #D9E0FF",
"1 	c #2D40AA",
"2 	c #E9EEFF",
"3 	c #2F41AA",
"4 	c #D8DEFF",
"5 	c #5969C3",
"6 	c #FA0821",
"7 	c #FB0000",
"8 	c #8A0000",
"9 	c #A80000",
"0 	c #1B2D94",
"a 	c #C2C8FF",
"b 	c #132792",
"c 	c #13268F",
"d 	c #9BA4E6",
"e 	c #3F50A9",
"f 	c #13258B",
"g 	c #6F7BC9",
"h 	c #6A78C6",
"i 	c #4757AF",
"j 	c #929CE1",
"k 	c #14278E",
"l 	c #C2C9FE",
"m 	c #15288E",
"n 	c #909ADF",
"o 	c #4959B0",
"p 	c #E53E55",
"q 	c #FF4545",
"r 	c #FF4343",
"s 	c #FF3D3D",
"t 	c #C42F2F",
"u 	c #651818",
"v 	c #942323",
"w 	c #12258D",
"x 	c #12258A",
"y 	c #213399",
"z 	c #4857A9",
"A 	c #102281",
"B 	c #10227F",
"C 	c #505DA8",
"D 	c #10227E",
"E 	c #4855A1",
"F 	c #182985",
"G 	c #162884",
"H 	c #4A57A2",
"I 	c #D0D3E9",
"J 	c #FFFFFF",
"K 	c #E5E5E5",
"L 	c #AFAFAF",
"M 	c #5E5E5E",
"N 	c #939393",
"O 	c #8A95D3",
"P 	c #B0B8E3",
"Q 	c #10217E",
"R 	c #3D4A97",
"S 	c #D6D8EB",
"T 	c #16277F",
"U 	c #1A2A81",
"V 	c #DBDDEE",
"W 	c #344292",
"X 	c #0F207A",
"Y 	c #ABB0D4",
"Z 	c #6F79B3",
"` 	c #6D77B2",
" .	c #ADB3D5",
"..	c #C9CCE1",
"+.	c #FEFEFE",
"@.	c #F7F7F7",
"#.	c #DCDCDC",
"$.	c #A9A9A9",
"%.	c #5D5D5D",
"&.	c #2F409E",
"*.	c #4454AF",
"=.	c #4554AB",
"-.	c #2A3A8F",
";.	c #233388",
">.	c #5763AE",
",.	c #1F2E84",
"'.	c #192981",
").	c #5C68B2",
"!.	c #1E2E84",
"~.	c #29388C",
"{.	c #414E9F",
"].	c #394797",
"^.	c #384697",
"/.	c #414F9F",
"(.	c #F6F6F6",
"_.	c #3041A0",
":.	c #C5CBF0",
"<.	c #253799",
"[.	c #142687",
"}.	c #ACB2D8",
"|.	c #3D4A96",
"1.	c #7882B8",
"2.	c #424F99",
"3.	c #A6ACD2",
"4.	c #243388",
"5.	c #AEB4D5",
"6.	c #253488",
"7.	c #A5ABD1",
"8.	c #43509A",
"9.	c #C94256",
"0.	c #FE4B4B",
"a.	c #F64949",
"b.	c #DC4141",
"c.	c #A93232",
"d.	c #5D1B1B",
"e.	c #932B2B",
"f.	c #1A2C94",
"g.	c #CAD0FF",
"h.	c #12258C",
"i.	c #112385",
"j.	c #969DD4",
"k.	c #374694",
"l.	c #6772B3",
"m.	c #626DB0",
"n.	c #3F4D99",
"o.	c #8A92CA",
"p.	c #11227C",
"q.	c #B5BAE5",
"r.	c #12237C",
"s.	c #8890C9",
"t.	c #414E9A",
"u.	c #C9061A",
"v.	c #FE0000",
"w.	c #F60000",
"x.	c #DC0000",
"y.	c #A90000",
"z.	c #5D0000",
"A.	c #930000",
"B.	c #13278E",
"C.	c #192B90",
"D.	c #1E3195",
"E.	c #404FA3",
"F.	c #142580",
"G.	c #45529D",
"H.	c #13247D",
"I.	c #13237C",
"J.	c #3F4C98",
"K.	c #15267F",
"L.	c #16267F",
"M.	c #14257E",
"N.	c #404D99",
"O.	c #8591D1",
"P.	c #ACB4DF",
"Q.	c #10217D",
"R.	c #3B4996",
"S.	c #CFD2E8",
"T.	c #D4D7EA",
"U.	c #344291",
"V.	c #A7ADD2",
"W.	c #6B75B1",
"X.	c #6873AF",
"Y.	c #A9AFD3",
"Z.	c #28399A",
"`.	c #4B5BB4",
" +	c #505EB2",
".+	c #24348B",
"++	c #243489",
"@+	c #6671B7",
"#+	c #1B2B82",
"$+	c #172780",
"%+	c #6C76BB",
"&+	c #1E2E85",
"*+	c #233288",
"=+	c #4C58A5",
"-+	c #3F4C9B",
";+	c #3E4C9A",
">+	c #4C59A6",
",+	c #C9C1D5",
"'+	c #FEEFEF",
")+	c #F6E7E7",
"!+	c #DCCFCF",
"~+	c #A99F9F",
"{+	c #5D5757",
"]+	c #938A8A",
"^+	c #2C3F9E",
"/+	c #B5BDE9",
"(+	c #233597",
"_+	c #A1A7D2",
":+	c #374592",
"<+	c #707AB3",
"[+	c #6671AE",
"}+	c #3B4995",
"|+	c #9BA2CC",
"1+	c #223286",
"2+	c #A0A7CE",
"3+	c #233287",
"4+	c #9AA1CC",
"5+	c #3C4A95",
"6+	c #1B2D95",
"7+	c #D8DCFF",
"8+	c #13268D",
"9+	c #A2A8DA",
"0+	c #394795",
"a+	c #6E78B7",
"b+	c #6973B3",
"c+	c #414F9A",
"d+	c #959DD0",
"e+	c #12237D",
"f+	c #C0C5EA",
"g+	c #13247E",
"h+	c #939BCF",
"i+	c #43519C",
"j+	c #223496",
"k+	c #1B2E93",
"l+	c #39499E",
"m+	c #1A2A85",
"n+	c #3D4B98",
"o+	c #182880",
"p+	c #17277F",
"q+	c #384694",
"r+	c #1F2F86",
"s+	c #14247D",
"t+	c #182981",
"u+	c #172880",
"v+	c #C9A9BD",
"w+	c #FED0D0",
"x+	c #F6C9C9",
"y+	c #DCB4B4",
"z+	c #A98B8B",
"A+	c #5D4C4C",
"B+	c #937878",
"C+	c #818CCE",
"D+	c #A7AFDD",
"E+	c #3A4895",
"F+	c #C8CBE4",
"G+	c #CBCFE6",
"H+	c #334191",
"I+	c #A3A9D0",
"J+	c #6671AF",
"K+	c #646FAD",
"L+	c #223495",
"M+	c #5362B7",
"N+	c #5B68B8",
"O+	c #1F2F87",
"P+	c #263589",
"Q+	c #767FC0",
"R+	c #182980",
"S+	c #7D86C4",
"T+	c #1F2F85",
"U+	c #5763AB",
"V+	c #45529E",
"W+	c #44519D",
"X+	c #5863AC",
"Y+	c #293A9A",
"Z+	c #A3ACE0",
"`+	c #213395",
" @	c #132686",
".@	c #929BCB",
"+@	c #2F3E8D",
"@@	c #6570AC",
"#@	c #5C67A7",
"$@	c #33418F",
"%@	c #8D95C5",
"&@	c #1F2F84",
"*@	c #9198C6",
"=@	c #203084",
"-@	c #8D95C4",
";@	c #344290",
">@	c #1E3197",
",@	c #E4E9FF",
"'@	c #15298F",
")@	c #AEB4E0",
"!@	c #3C4A98",
"~@	c #7680BB",
"{@	c #707AB8",
"]@	c #A2A8D6",
"^@	c #15257F",
"/@	c #CBCFEE",
"(@	c #162680",
"_@	c #A0A6D5",
":@	c #47549E",
"<@	c #C9596E",
"[@	c #FE6A6A",
"}@	c #F66767",
"|@	c #DC5C5C",
"1@	c #A94747",
"2@	c #5D2727",
"3@	c #933D3D",
"4@	c #162A8F",
"5@	c #2D3F9E",
"6@	c #1A2C92",
"7@	c #34449B",
"8@	c #20308A",
"9@	c #354494",
"0@	c #1D2D84",
"a@	c #1B2C83",
"b@	c #1F2E86",
"c@	c #324091",
"d@	c #14247E",
"e@	c #28388D",
"f@	c #1E2E86",
"g@	c #1C2C83",
"h@	c #7B86CB",
"i@	c #A1AADA",
"j@	c #394794",
"k@	c #BFC3DF",
"l@	c #C2C6E1",
"m@	c #9EA4CD",
"n@	c #616CAC",
"o@	c #5F6AAA",
"p@	c #A0A6CE",
"q@	c #1E3092",
"r@	c #5B69BC",
"s@	c #6773BF",
"t@	c #1B2B84",
"u@	c #27368A",
"v@	c #868EC9",
"w@	c #16267E",
"x@	c #8D95CE",
"y@	c #626DB2",
"z@	c #4B58A1",
"A@	c #4A57A1",
"B@	c #636EB2",
"C@	c #555555",
"D@	c #8E8E8E",
"E@	c #C7C7C7",
"F@	c #243597",
"G@	c #919BD7",
"H@	c #1E3193",
"I@	c #828BC1",
"J@	c #283788",
"K@	c #5965A6",
"L@	c #505CA1",
"M@	c #2A398A",
"N@	c #7F88BD",
"O@	c #1C2C81",
"P@	c #8089BE",
"Q@	c #1D2D81",
"R@	c #7E87BC",
"S@	c #2B3A8A",
"T@	c #C91E32",
"U@	c #FE1E1E",
"V@	c #000000",
"W@	c #393939",
"X@	c #F61D1D",
"Y@	c #DC1A1A",
"Z@	c #A91414",
"`@	c #5D0B0B",
" #	c #931111",
".#	c #223499",
"+#	c #EEF2FF",
"@#	c #192B92",
"##	c #122486",
"$#	c #B8BEE4",
"%#	c #404D9A",
"&#	c #7E87BF",
"*#	c #7781BB",
"=#	c #49559F",
"-#	c #ACB2DB",
";#	c #172881",
">#	c #D4D7F0",
",#	c #182982",
"'#	c #AAB0D9",
")#	c #4B58A0",
"!#	c #AAAAAA",
"~#	c #182B90",
"{#	c #3A4BA8",
"]#	c #293991",
"^#	c #243389",
"/#	c #203086",
"(#	c #27368C",
"_#	c #10217B",
":#	c #354396",
"<#	c #11227B",
"[#	c #213086",
"}#	c #1D1D1D",
"|#	c #E3E3E3",
"1#	c #33449F",
"2#	c #32439C",
"3#	c #33449E",
"4#	c #304197",
"5#	c #2D3D8D",
"6#	c #2C3B8A",
"7#	c #CF2436",
"8#	c #727272",
"9#	c #FF7A7A",
"0#	c #FF7878",
"a#	c #FF7474",
"b#	c #FF6D6D",
"c#	c #FFEFEF",
"d#	c #FFEBEB",
"e#	c #FFEEEE",
"f#	c #FFE3E3",
"g#	c #FFD5D5",
"h#	c #FEF1F1",
"i#	c #FFF8F8",
"j#	c #FFF4F4",
"k#	c #FF5757",
"l#	c #FF5555",
"m#	c #FF5656",
"n#	c #FF5252",
"o#	c #FF4D4D",
"p#	c #FFF2F2",
"q#	c #FDFDFD",
"r#	c #FAFAFA",
"s#	c #F3F3F3",
"t#	c #EDEDED",
"u#	c #D9D9D9",
"v#	c #FF4141",
"w#	c #EF3939",
"x#	c #D83333",
"y#	c #D13232",
"z#	c #CF3131",
"A#	c #C72F2F",
"B#	c #A52727",
"C#	c #5D1616",
"D#	c #932323",
"E#	c #D80000",
"F#	c #950000",
"G#	c #900000",
"H#	c #910000",
"I#	c #540000",
"J#	c #CA0000",
"K#	c #AB0000",
"L#	c #5E0000",
"M#	c #3C0000",
"N#	c #350000",
"O#	c #340000",
"P#	c #370000",
"Q#	c #290000",
"R#	c #D50000",
"S#	c #C00000",
"T#	c #870000",
"U#	c #750000",
"V#	c #730000",
"W#	c #720000",
"X#	c #800000",
". + @ # # # # # # # # # # # # # # # # $ % % % % % % % % % % % % % % % % % % % % % % % % % % & * ",
"= - = @ ; > > , ' > > ; > > ; > > ; > ) % % % % % % % % % % % % % % % % % % % % % % % % % % ! ~ ",
"{ ] ^ / ( _ : < [ : } | : 1 2 3 : 4 5 6 % % % % % % % % % % % % % % % % % % % % % % % % % 7 8 9 ",
"0 a b c d e f g h f i j f k l m f n o p q q q q q q q q q q q q q q q q q q q q q q q r s t u v ",
"w x y z A B C D D C D D E F D G H D D I J J J J J J J J J J J J J J J J J J J J J J J J K L M N ",
"w x O P Q R S T U V W X Y Z X `  .X X ..+.+.+.+.+.+.+.+.+.+.+.+.+.+.+.+.+.+.+.+.+.+.+.@.#.$.%.N ",
"w &.*.=.-.;.>.,.'.).!.~.{.].~.^./.~.X ..+.+.+.+.+.+.+.+.+.+.+.+.+.+.+.+.+.+.+.+.+.+.+.(.#.$.%.N ",
"_.:.<.[.}.|.X 1.Z X 2.3.X 4.5.6.X 7.8.9.0.0.0.0.0.0.0.0.0.0.0.0.0.0.0.0.0.0.0.0.0.0.0.a.b.c.d.e.",
"f.g.h.i.j.k.X l.m.X n.o.X p.q.r.X s.t.u.v.v.v.v.v.v.v.v.v.v.v.v.v.v.v.v.v.v.v.v.v.v.v.w.x.y.z.A.",
"B.C.D.E.F.r.G.H.H.G.I.H.J.K.L.M.N.H.I.u.v.v.v.v.v.v.v.v.v.v.v.v.v.v.v.v.v.v.v.v.v.v.v.w.x.y.z.A.",
"w x O.P.Q.R.S.T U T.U.X V.W.X X.Y.X X u.v.v.v.v.v.v.v.v.v.v.v.v.v.v.v.v.v.v.v.v.v.v.v.w.x.y.z.A.",
"w Z.`. +.+++@+#+$+%+&+*+=+-+*+;+>+*+X ,+'+'+'+'+'+'+'+'+'+'+'+'+'+'+'+'+'+'+'+'+'+'+'+)+!+~+{+]+",
"^+/+(+[._+:+X <+[+X }+|+X 1+2+3+X 4+5+..+.+.+.+.+.+.+.+.+.+.+.+.+.+.+.+.+.+.+.+.+.+.+.(.#.$.%.N ",
"6+7+8+i.9+0+X a+b+X c+d+X e+f+g+X h+i+..+.+.+.+.+.+.+.+.+.+.+.+.+.+.+.+.+.+.+.+.+.+.+.(.#.$.%.N ",
"m j+k+l+m+T n+o+o+n+p+'.q+M.r+s+0+t+u+v+w+w+w+w+w+w+w+w+w+w+w+w+w+w+w+w+w+w+w+w+w+w+w+x+y+z+A+B+",
"w x C+D+Q.E+F+T U G+H+X I+J+X K+7.X X u.v.v.v.v.v.v.v.v.v.v.v.v.v.v.v.v.v.v.v.v.v.v.v.w.x.y.z.A.",
"w L+M+N+O+P+Q+R+M.S+T+!.U+V+!.W+X+!.X u.v.v.v.v.v.v.v.v.v.v.v.v.v.v.v.v.v.v.v.v.v.v.v.w.x.y.z.A.",
"Y+Z+`+ @.@+@X @@#@X $@%@X &@*@=@X -@;@u.v.v.v.v.v.v.v.v.v.v.v.v.v.v.v.v.v.v.v.v.v.v.v.w.x.y.z.A.",
">@,@'@i.)@!@X ~@{@X G.]@X ^@/@(@X _@:@<@[@[@[@[@[@[@[@[@[@[@[@[@[@[@[@[@[@[@[@[@[@[@[@}@|@1@2@3@",
"4@5@6@7@8@#+9@0@0@9@a@b@c@d@e@s+H+f@g@..+.+.+.+.+.+.+.+.+.+.+.+.+.+.+.+.+.+.+.+.+.+.+.(.#.$.%.N ",
"w x h@i@Q.j@k@T U l@H+X m@n@X o@p@X X ..+.+.+.+.+.+.+.+.+.+.+.+.+.+.+.+.+.+.+.+.+.+.+.(.#.$.%.N ",
"w q@r@s@t@u@v@w@H.x@T+U y@z@U A@B@U X ..+.+.J C@C@C@C@C@C@C@C@C@C@C@D@E@J J +.+.+.+.+.(.#.$.%.N ",
"F@G@H@ @I@J@X K@L@X M@N@X O@P@Q@X R@S@T@U@J J V@V@V@V@V@V@V@V@V@V@V@V@V@W@E@J J w+U@U@X@Y@Z@`@ #",
".#+#@###$#%#X &#*#X =#-#X ;#>#,#X '#)#u.v.J J V@V@V@V@V@V@V@V@V@V@V@V@V@V@V@!#J J w+v.w.x.y.z.A.",
"~#{#h.i.]#T+X ^#^#X /#(#X _#:#<#X (#[#u.v.J J V@V@V@V@V@V@C@C@C@C@}#V@V@V@V@V@|#J J w+w.x.y.z.A.",
"1#2#3#4#5#6#6#6#6#6#6#6#6#6#6#6#6#6#6#7#U@J J J J V@V@V@V@J J J J J E@}#V@V@V@W@J J J X@Y@Z@`@ #",
"J J J J J +.+.+.+.+.+.+.+.+.+.+.+.+.+.+.+.+.+.J J V@V@V@V@J +.+.J J J |#V@V@V@V@E@J +.(.#.$.%.N ",
"J J J J J +.+.+.+.+.+.+.+.+.+.+.+.+.+.+.+.+.+.+.J V@V@V@V@J +.+.+.+.J J 8#V@V@V@8#J +.(.#.$.%.N ",
"J J J J J +.+.+.+.+.+.+.+.+.+.+.+.+.+.+.+.+.+.J J V@V@V@V@J +.+.+.+.J J !#V@V@V@C@J J (.#.$.%.N ",
"9#0#9#a#b#[@[@[@[@[@[@[@[@[@[@[@[@[@[@[@[@[@[@J J V@V@V@V@J [@[@[@[@w+J J V@V@V@V@J J }@|@1@2@3@",
"% % % % % v.v.v.v.v.v.v.v.v.v.v.v.v.v.v.v.v.v.J J V@V@V@V@J v.v.v.v.v.J J V@V@V@V@J J w.x.y.z.A.",
"% % % % % v.v.v.v.v.v.v.v.v.v.v.v.v.v.v.v.v.v.J J V@V@V@V@J v.v.v.v.v.J J V@V@V@V@J J w.x.y.z.A.",
"% % % % % v.v.v.v.v.v.v.v.v.v.v.v.v.v.v.v.v.v.J J V@V@V@V@J v.v.v.v.v.J |#V@V@V@V@J J w.x.y.z.A.",
"c#d#e#f#g#w+w+w+w+w+w+w+w+w+w+w+w+w+w+w+w+w+w+J J V@V@V@V@J w+w+w+w+J J !#V@V@V@V@J J x+y+z+A+B+",
"J J J J J +.+.+.+.+.+.+.+.+.+.+.+.+.+.+.+.+.+.J J V@V@V@V@J +.+.+.J J J 8#V@V@V@C@J +.(.#.$.%.N ",
"J J J J J +.+.+.+.+.+.+.+.+.+.+.+.+.+.+.+.+.+.J J V@V@V@V@J '+'+h#i#J |#V@V@V@V@D@J +.(.#.$.%.N ",
"J J J J j#'+'+'+'+'+'+'+'+'+'+'+'+'+'+'+'+'+J J J V@V@V@V@J J J J |#D@}#V@V@V@V@|#i#'+)+!+~+{+]+",
"% % % % % v.v.v.v.v.v.v.v.v.v.v.v.v.v.v.v.J J J J V@V@V@V@V@V@V@V@V@V@V@V@V@V@8#J J w+w.x.y.z.A.",
"% % % % % v.v.v.v.v.v.v.v.v.v.v.v.v.v.v.v.J J V@V@V@V@V@V@V@V@V@V@V@V@V@V@V@}#|#J w+v.w.x.y.z.A.",
"% % % % % v.v.v.v.v.v.v.v.v.v.v.v.v.v.v.v.J J V@V@V@V@V@V@V@V@V@V@V@V@V@V@}#|#J w+v.v.w.x.y.z.A.",
"k#l#m#n#o#0.0.0.0.0.0.0.0.0.0.0.0.0.0.0.0.J J V@V@V@V@V@V@V@V@V@V@V@V@}#D@p#J w+0.0.0.a.b.c.d.e.",
"J J J J J +.+.+.+.+.+.+.+.+.+.+.+.+.+.+.+.+.J !#!#!#!#!#!#!#!#!#!#!#J +.+.+.+.+.+.+.+.(.#.$.%.N ",
"J J J J J q#+.+.+.+.+.+.+.+.+.+.+.+.+.+.+.+.+.+.+.+.+.+.+.+.+.+.+.+.+.+.+.+.+.+.+.+.q#(.#.$.%.N ",
"J J J J r#s#s#s#s#s#s#s#s#s#s#s#s#s#s#s#s#s#s#s#s#s#s#s#s#s#s#s#s#s#s#s#s#s#s#s#s#s#s#t#u#$.%.N ",
"q r v#w#x#y#z#z#z#z#z#z#z#z#z#z#z#z#z#z#z#z#z#z#z#z#z#z#z#z#z#z#z#z#z#z#z#z#z#z#z#z#z#z#A#B#C#D#",
"% % E#y.F#G#G#G#G#G#G#G#G#G#G#G#G#G#G#G#G#G#G#G#G#G#G#G#G#G#G#G#G#G#G#G#G#G#G#G#G#G#G#H#A.8 I#8 ",
"J#K#L#M#N#O#O#O#O#O#O#O#O#O#O#O#O#O#O#O#O#O#O#O#O#O#O#O#O#O#O#O#O#O#O#O#O#O#O#O#O#O#O#O#N#P#Q#L#",
"R#S#T#U#V#V#V#V#V#V#V#V#V#V#V#V#V#V#V#V#V#V#V#V#V#V#V#V#V#V#V#V#V#V#V#V#V#V#V#V#V#V#V#V#V#W#z.X#"};
