/* XPM */
static char * es_xpm[] = {
"48 48 102 2",
"  	c None",
". 	c #CD0000",
"+ 	c #FF0000",
"@ 	c #DF0000",
"# 	c #C10000",
"$ 	c #BA0000",
"% 	c #B90000",
"& 	c #750000",
"* 	c #E70000",
"= 	c #F70000",
"- 	c #970000",
"; 	c #D40000",
"> 	c #650000",
", 	c #CB0000",
"' 	c #DE0000",
") 	c #520000",
"! 	c #CA0000",
"~ 	c #EA0000",
"{ 	c #CE0000",
"] 	c #4C0000",
"^ 	c #FE0000",
"/ 	c #F30000",
"( 	c #E00000",
"_ 	c #FA0000",
": 	c #F00000",
"< 	c #C80000",
"[ 	c #CACA00",
"} 	c #FFFF00",
"| 	c #FEFE00",
"1 	c #FAFA00",
"2 	c #F0F000",
"3 	c #DFDF00",
"4 	c #C8C800",
"5 	c #4C4C00",
"6 	c #FFFF01",
"7 	c #FDFE01",
"8 	c #FEFF02",
"9 	c #FFFC00",
"0 	c #FCFF03",
"a 	c #FEFF00",
"b 	c #FEFF01",
"c 	c #000000",
"d 	c #FCFF00",
"e 	c #FFFE02",
"f 	c #FCFF16",
"g 	c #FFFE04",
"h 	c #FBFE01",
"i 	c #530000",
"j 	c #FFFD01",
"k 	c #FBFC03",
"l 	c #FFFF03",
"m 	c #FFFF05",
"n 	c #A51010",
"o 	c #FFFF02",
"p 	c #FAFF00",
"q 	c #573D00",
"r 	c #ECFF00",
"s 	c #EBFF00",
"t 	c #5D3300",
"u 	c #D20500",
"v 	c #665100",
"w 	c #898989",
"x 	c #FFFFFF",
"y 	c #8D1792",
"z 	c #DE00DD",
"A 	c #2D224E",
"B 	c #4F335F",
"C 	c #880A82",
"D 	c #9F30BE",
"E 	c #A0CEAF",
"F 	c #EC00F0",
"G 	c #BD14DF",
"H 	c #F2FF00",
"I 	c #00395A",
"J 	c #B2AF11",
"K 	c #560000",
"L 	c #864011",
"M 	c #920000",
"N 	c #302105",
"O 	c #5CC929",
"P 	c #371200",
"Q 	c #650005",
"R 	c #606060",
"S 	c #FD0000",
"T 	c #F80000",
"U 	c #ED0000",
"V 	c #E90000",
"W 	c #E60000",
"X 	c #DC0000",
"Y 	c #D50000",
"Z 	c #C50000",
"` 	c #EC0000",
" .	c #BC0000",
"..	c #B70000",
"+.	c #4A0000",
"@.	c #610000",
"#.	c #B00000",
"$.	c #640000",
"%.	c #370000",
"&.	c #240000",
"*.	c #200000",
"=.	c #080000",
". + @ # $ % % % % % % % % % % % % % % % % % % % % % % % % % % % % % % % % % % % % % % % % % $ & ",
"+ + + + + + + + + + + + + + + + + + + + + + + + + + + + + + + + + + + + + + + + + + + + + + + * ",
"= + + + + + + + + + + + + + + + + + + + + + + + + + + + + + + + + + + + + + + + + + + + + + + - ",
"; + + + + + + + + + + + + + + + + + + + + + + + + + + + + + + + + + + + + + + + + + + + + + + > ",
", + + + + + + + + + + + + + + + + + + + + + + + + + + + + + + + + + + + + + + + + + + + + + ' ) ",
"! + + + + + + + + + + + + + + + + + + + + + + + + + + + + + + + + + + + + + + + + + + + + ~ { ] ",
"! + + + + + + + + + + + + + + + + + + + + + + + + + + + + + + + + + + + + + + + + + + ^ / ( ! ] ",
"! + + + + + + ^ ^ ^ ^ ^ ^ ^ ^ ^ ^ ^ ^ ^ ^ ^ ^ ^ ^ ^ ^ ^ ^ ^ ^ ^ ^ ^ ^ ^ ^ ^ ^ ^ ^ ^ ^ _ : @ < ] ",
"! + + + + + + ^ ^ ^ ^ ^ ^ ^ ^ ^ ^ ^ ^ ^ ^ ^ ^ ^ ^ ^ ^ ^ ^ ^ ^ ^ ^ ^ ^ ^ ^ ^ ^ ^ ^ ^ ^ _ : @ < ] ",
"! + + + + + + ^ ^ ^ ^ ^ ^ ^ ^ ^ ^ ^ ^ ^ ^ ^ ^ ^ ^ ^ ^ ^ ^ ^ ^ ^ ^ ^ ^ ^ ^ ^ ^ ^ ^ ^ ^ _ : @ < ] ",
"! + + + + + + ^ ^ ^ ^ ^ ^ ^ ^ ^ ^ ^ ^ ^ ^ ^ ^ ^ ^ ^ ^ ^ ^ ^ ^ ^ ^ ^ ^ ^ ^ ^ ^ ^ ^ ^ ^ _ : @ < ] ",
"! + + + + + ^ ^ ^ ^ ^ ^ ^ ^ ^ ^ ^ ^ ^ ^ ^ ^ ^ ^ ^ ^ ^ ^ ^ ^ ^ ^ ^ ^ ^ ^ ^ ^ ^ ^ ^ ^ ^ _ : @ < ] ",
"! + + + + + ^ ^ ^ ^ ^ ^ ^ ^ ^ ^ ^ ^ ^ ^ ^ ^ ^ ^ ^ ^ ^ ^ ^ ^ ^ ^ ^ ^ ^ ^ ^ ^ ^ ^ ^ ^ ^ _ : @ < ] ",
"[ } } } } } | | | | | | | | | | | | | | | | | | | | | | | | | | | | | | | | | | | | | 1 2 3 4 5 ",
"[ } } } 6 7 8 } } } } } | | 9 } } } } 0 } } } } } } } | | | | | | | | | | | | | | | | 1 2 3 4 5 ",
"[ } } a b 7 } } | | | c c c c c | | | | } a a a a a a | | | | | | | | | | | | | | | | 1 2 3 4 5 ",
"[ } } a d e } f | c c | | c | | c c | } } } d 8 a a a | | | | | | | | | | | | | | | | 1 2 3 4 5 ",
"[ } } a g h } | c | i + c c c ^ c | c } j 6 k l a a a | | | | | | | | | | | | | | | | 1 2 3 4 5 ",
"[ } } } } } } m c n ^ c ^ ^ ^ c ^ n c } } } o p } a a | | | | | | | | | | | | | | | | 1 2 3 4 5 ",
"[ } } } | q | | } c c c c c c c c c } | | c | 6 } a a | | | | | | | | | | | | | | | | 1 2 3 4 5 ",
"[ } } } c c c r s } t ! @ @ u . v } o | c c c } a a a | | | | | | | | | | | | | | | | 1 2 3 4 5 ",
"[ } } } w x c } n ^ ^ ^ ^ ^ x x x x n | w x w } a a a | | | | | | | | | | | | | | | | 1 2 3 4 5 ",
"[ } } } w x c } n ^ | ^ ^ ^ x y z A n | w x w } a a a | | | | | | | | | | | | | | | | 1 2 3 4 5 ",
"[ } } } w x ^ ^ n | | | ^ ^ x B C D n ^ ^ x w } a a a | | | | | | | | | | | | | | | | 1 2 3 4 5 ",
"[ } } o ^ ^ c | n | ^ | ^ c x E F G n | w ^ ^ } a a a | | | | | | | | | | | | | | | | 1 2 3 4 5 ",
"[ } } } w x c H n ^ ^ ^ I c c x x x n | w x w } } a a | | | | | | | | | | | | | | | | 1 2 3 4 5 ",
"[ } } o w x ^ ^ n ^ ^ c J J J c n n n ^ ^ x w } } a a | | | | | | | | | | | | | | | | 1 2 3 4 5 ",
"[ } } 6 ^ ^ c } n | ^ | c c c K L M n | w ^ ^ } } a a | | | | | | | | | | | | | | | | 1 2 3 4 5 ",
"[ } } o w x c } n | ^ | ^ c c N O P n | w x w } a a a | | | | | | | | | | | | | | | | 1 2 3 4 5 ",
"[ } } } w x c } n | ^ | ^ M c + ^ ^ n | w x w } } a a | | | | | | | | | | | | | | | | 1 2 3 4 5 ",
"[ } } } w x c | n ^ ^ ^ ^ M c ^ ^ Q c | w x w } } a a | | | | | | | | | | | | | | | | 1 2 3 4 5 ",
"[ } } R R R R c } ^ ^ ^ ^ M c c c c } c R R R R } a a | | | | | | | | | | | | | | | | 1 2 3 4 5 ",
"[ } } R c c c c } } } ^ ^ M c c } } } c c c c R } a a | | | | | | | | | | | | | | | | 1 2 3 4 5 ",
"[ } } } } } } | | | | | | | | | | | | | | | | | | | | | | | | | | | | | | | | | | | | 1 2 3 4 5 ",
"[ } } } } } } | | | | | | | | | | | | | | | | | | | | | | | | | | | | | | | | | | | | 1 2 3 4 5 ",
"! + + + + + + ^ ^ ^ ^ ^ ^ ^ ^ ^ ^ ^ ^ ^ ^ ^ ^ ^ ^ ^ ^ ^ ^ ^ ^ ^ ^ ^ ^ ^ ^ ^ ^ ^ ^ ^ ^ _ : @ < ] ",
"! + + + + + + ^ ^ ^ ^ ^ ^ ^ ^ ^ ^ ^ ^ ^ ^ ^ ^ ^ ^ ^ ^ ^ ^ ^ ^ ^ ^ ^ ^ ^ ^ ^ ^ ^ ^ ^ ^ _ : @ < ] ",
"! + + + + + + ^ ^ ^ ^ ^ ^ ^ ^ ^ ^ ^ ^ ^ ^ ^ ^ ^ ^ ^ ^ ^ ^ ^ ^ ^ ^ ^ ^ ^ ^ ^ ^ ^ ^ ^ ^ _ : @ < ] ",
"! + + + + + + ^ ^ ^ ^ ^ ^ ^ ^ ^ ^ ^ ^ ^ ^ ^ ^ ^ ^ ^ ^ ^ ^ ^ ^ ^ ^ ^ ^ ^ ^ ^ ^ ^ ^ ^ ^ _ : @ < ] ",
"! + + + + + + ^ ^ ^ ^ ^ ^ ^ ^ ^ ^ ^ ^ ^ ^ ^ ^ ^ ^ ^ ^ ^ ^ ^ ^ ^ ^ ^ ^ ^ ^ ^ ^ ^ ^ ^ ^ _ : @ < ] ",
"! + + + + + + ^ ^ ^ ^ ^ ^ ^ ^ ^ ^ ^ ^ ^ ^ ^ ^ ^ ^ ^ ^ ^ ^ ^ ^ ^ ^ ^ ^ ^ ^ ^ ^ ^ ^ ^ ^ _ : @ < ] ",
"! + + + + + + ^ ^ ^ ^ ^ ^ ^ ^ ^ ^ ^ ^ ^ ^ ^ ^ ^ ^ ^ ^ ^ ^ ^ ^ ^ ^ ^ ^ ^ ^ ^ ^ ^ ^ ^ ^ _ : @ < ] ",
"! + + + + + + ^ ^ ^ ^ ^ ^ ^ ^ ^ ^ ^ ^ ^ ^ ^ ^ ^ ^ ^ ^ ^ ^ ^ ^ ^ ^ ^ ^ ^ ^ ^ ^ ^ ^ ^ ^ _ : @ < ] ",
"! + + + + + S T T T T T T T T T T T T T T T T T T T T T T T T T T T T T T T T T T T T = U @ < ] ",
"! + + + + T U ~ ~ ~ ~ ~ ~ ~ ~ ~ ~ ~ ~ ~ ~ ~ ~ ~ ~ ~ ~ ~ ~ ~ ~ ~ ~ ~ ~ ~ ~ ~ ~ ~ ~ ~ ~ V W X < ] ",
"! + + + / @ Y ; ; ; ; ; ; ; ; ; ; ; ; ; ; ; ; ; ; ; ; ; ; ; ; ; ; ; ; ; ; ; ; ; ; ; ; ; Y ; Z ] ",
"< + + ` ,  .............................................................................% $ % +.",
"@.#.$.%.&.*.*.*.*.*.*.*.*.*.*.*.*.*.*.*.*.*.*.*.*.*.*.*.*.*.*.*.*.*.*.*.*.*.*.*.*.*.*.*.*.*.&.=."};
