/* XPM */
static char * fr_xpm[] = {
"48 48 70 1",
" 	c None",
".	c #0000CD",
"+	c #0000FF",
"@	c #0000DF",
"#	c #0000C1",
"$	c #0000BA",
"%	c #0000B9",
"&	c #B9B9B9",
"*	c #B90000",
"=	c #BA0000",
"-	c #750000",
";	c #FFFFFF",
">	c #FF0000",
",	c #E70000",
"'	c #0000F7",
")	c #970000",
"!	c #0000D4",
"~	c #650000",
"{	c #0000CB",
"]	c #DE0000",
"^	c #520000",
"/	c #0000CA",
"(	c #EA0000",
"_	c #CE0000",
":	c #4C0000",
"<	c #FE0000",
"[	c #F30000",
"}	c #E00000",
"|	c #CA0000",
"1	c #0000FE",
"2	c #FEFEFE",
"3	c #FA0000",
"4	c #F00000",
"5	c #DF0000",
"6	c #C80000",
"7	c #0000FD",
"8	c #0000F8",
"9	c #F8F8F8",
"0	c #F80000",
"a	c #F70000",
"b	c #ED0000",
"c	c #0000ED",
"d	c #0000EA",
"e	c #EAEAEA",
"f	c #E90000",
"g	c #E60000",
"h	c #DC0000",
"i	c #0000F3",
"j	c #0000D5",
"k	c #D4D4D4",
"l	c #D40000",
"m	c #D50000",
"n	c #C50000",
"o	c #0000C8",
"p	c #0000EC",
"q	c #0000BC",
"r	c #0000B7",
"s	c #B7B7B7",
"t	c #B70000",
"u	c #4A0000",
"v	c #000061",
"w	c #0000B0",
"x	c #000064",
"y	c #000037",
"z	c #000024",
"A	c #000020",
"B	c #202020",
"C	c #200000",
"D	c #240000",
"E	c #080000",
".+@#$%%%%%%%%%%%&&&&&&&&&&&&&&&&**************=-",
"++++++++++++++++;;;;;;;;;;;;;;;;>>>>>>>>>>>>>>>,",
"'+++++++++++++++;;;;;;;;;;;;;;;;>>>>>>>>>>>>>>>)",
"!+++++++++++++++;;;;;;;;;;;;;;;;>>>>>>>>>>>>>>>~",
"{+++++++++++++++;;;;;;;;;;;;;;;;>>>>>>>>>>>>>>]^",
"/+++++++++++++++;;;;;;;;;;;;;;;;>>>>>>>>>>>>>(_:",
"/+++++++++++++++;;;;;;;;;;;;;;;;>>>>>>>>>>><[}|:",
"/++++++1111111112222222222222222<<<<<<<<<<<3456:",
"/++++++1111111112222222222222222<<<<<<<<<<<3456:",
"/++++++1111111112222222222222222<<<<<<<<<<<3456:",
"/++++++1111111112222222222222222<<<<<<<<<<<3456:",
"/++++++1111111112222222222222222<<<<<<<<<<<3456:",
"/++++++1111111112222222222222222<<<<<<<<<<<3456:",
"/++++++1111111112222222222222222<<<<<<<<<<<3456:",
"/++++++1111111112222222222222222<<<<<<<<<<<3456:",
"/++++++1111111112222222222222222<<<<<<<<<<<3456:",
"/++++++1111111112222222222222222<<<<<<<<<<<3456:",
"/++++++1111111112222222222222222<<<<<<<<<<<3456:",
"/++++++1111111112222222222222222<<<<<<<<<<<3456:",
"/++++++1111111112222222222222222<<<<<<<<<<<3456:",
"/++++++1111111112222222222222222<<<<<<<<<<<3456:",
"/++++++1111111112222222222222222<<<<<<<<<<<3456:",
"/++++++1111111112222222222222222<<<<<<<<<<<3456:",
"/++++++1111111112222222222222222<<<<<<<<<<<3456:",
"/++++++1111111112222222222222222<<<<<<<<<<<3456:",
"/++++++1111111112222222222222222<<<<<<<<<<<3456:",
"/++++++1111111112222222222222222<<<<<<<<<<<3456:",
"/++++++1111111112222222222222222<<<<<<<<<<<3456:",
"/++++++1111111112222222222222222<<<<<<<<<<<3456:",
"/++++++1111111112222222222222222<<<<<<<<<<<3456:",
"/++++++1111111112222222222222222<<<<<<<<<<<3456:",
"/++++++1111111112222222222222222<<<<<<<<<<<3456:",
"/++++++1111111112222222222222222<<<<<<<<<<<3456:",
"/++++++1111111112222222222222222<<<<<<<<<<<3456:",
"/++++++1111111112222222222222222<<<<<<<<<<<3456:",
"/++++++1111111112222222222222222<<<<<<<<<<<3456:",
"/++++++1111111112222222222222222<<<<<<<<<<<3456:",
"/++++++1111111112222222222222222<<<<<<<<<<<3456:",
"/++++++1111111112222222222222222<<<<<<<<<<<3456:",
"/++++++1111111112222222222222222<<<<<<<<<<<3456:",
"/++++++1111111112222222222222222<<<<<<<<<<<3456:",
"/++++++1111111112222222222222222<<<<<<<<<<<3456:",
"/++++++1111111112222222222222222<<<<<<<<<<<3456:",
"/+++++7888888888999999999999999900000000000ab56:",
"/++++8cdddddddddeeeeeeeeeeeeeeee(((((((((((fgh6:",
"/+++i@j!!!!!!!!!kkkkkkkkkkkkkkkkllllllllllllmln:",
"o++p{qrrrrrrrrrrsssssssssssssssstttttttttttt*=*u",
"vwxyzAAAAAAAAAAABBBBBBBBBBBBBBBBCCCCCCCCCCCCCCDE"};
