/* XPM */
static char * hu_xpm[] = {
"48 48 78 1",
" 	c None",
".	c #CC0000",
"+	c #FF0000",
"@	c #DE0000",
"#	c #C00000",
"$	c #B90000",
"%	c #B80000",
"&	c #740000",
"*	c #E70000",
"=	c #F60000",
"-	c #960000",
";	c #D30000",
">	c #650000",
",	c #CA0000",
"'	c #DD0000",
")	c #510000",
"!	c #C90000",
"~	c #E90000",
"{	c #CD0000",
"]	c #4C0000",
"^	c #FD0000",
"/	c #F20000",
"(	c #DF0000",
"_	c #F90000",
":	c #EF0000",
"<	c #C80000",
"[	c #CACACA",
"}	c #FFFFFF",
"|	c #FEFEFE",
"1	c #FAFAFA",
"2	c #F0F0F0",
"3	c #DFDFDF",
"4	c #C8C8C8",
"5	c #4C4C4C",
"6	c #00830A",
"7	c #00BB0E",
"8	c #00BD0E",
"9	c #00B90E",
"0	c #00B30E",
"a	c #00AD0D",
"b	c #00A70D",
"c	c #00A50C",
"d	c #00A20C",
"e	c #009C0C",
"f	c #00910B",
"g	c #00820A",
"h	c #003103",
"i	c #00B20D",
"j	c #00AA0D",
"k	c #00A40C",
"l	c #00A10C",
"m	c #009A0C",
"n	c #00B70E",
"o	c #00980B",
"p	c #00970B",
"q	c #00960B",
"r	c #008F0B",
"s	c #00BA0E",
"t	c #00AE0D",
"u	c #009E0C",
"v	c #008B0A",
"w	c #008A0A",
"x	c #00800A",
"y	c #00B00D",
"z	c #00990C",
"A	c #00840A",
"B	c #007A09",
"C	c #007709",
"D	c #007809",
"E	c #007909",
"F	c #003003",
"G	c #003F04",
"H	c #007309",
"I	c #004105",
"J	c #002302",
"K	c #001701",
"L	c #001501",
"M	c #000500",
".+@#$%%%%%%%%%%%%%%%%%%%%%%%%%%%%%%%%%%%%%%%%%$&",
"+++++++++++++++++++++++++++++++++++++++++++++++*",
"=++++++++++++++++++++++++++++++++++++++++++++++-",
";++++++++++++++++++++++++++++++++++++++++++++++>",
",+++++++++++++++++++++++++++++++++++++++++++++')",
"!++++++++++++++++++++++++++++++++++++++++++++~{]",
"!++++++++++++++++++++++++++++++++++++++++++^/(!]",
"!++++++^^^^^^^^^^^^^^^^^^^^^^^^^^^^^^^^^^^^_:@<]",
"!++++++^^^^^^^^^^^^^^^^^^^^^^^^^^^^^^^^^^^^_:@<]",
"!++++++^^^^^^^^^^^^^^^^^^^^^^^^^^^^^^^^^^^^_:@<]",
"!++++++^^^^^^^^^^^^^^^^^^^^^^^^^^^^^^^^^^^^_:@<]",
"!++++++^^^^^^^^^^^^^^^^^^^^^^^^^^^^^^^^^^^^_:@<]",
"!++++++^^^^^^^^^^^^^^^^^^^^^^^^^^^^^^^^^^^^_:@<]",
"!++++++^^^^^^^^^^^^^^^^^^^^^^^^^^^^^^^^^^^^_:@<]",
"!++++++^^^^^^^^^^^^^^^^^^^^^^^^^^^^^^^^^^^^_:@<]",
"!++++++^^^^^^^^^^^^^^^^^^^^^^^^^^^^^^^^^^^^_:@<]",
"[}}}}}}||||||||||||||||||||||||||||||||||||12345",
"[}}}}}}||||||||||||||||||||||||||||||||||||12345",
"[}}}}}}||||||||||||||||||||||||||||||||||||12345",
"[}}}}}}||||||||||||||||||||||||||||||||||||12345",
"[}}}}}}||||||||||||||||||||||||||||||||||||12345",
"[}}}}}}||||||||||||||||||||||||||||||||||||12345",
"[}}}}}}||||||||||||||||||||||||||||||||||||12345",
"[}}}}}}||||||||||||||||||||||||||||||||||||12345",
"[}}}}}}||||||||||||||||||||||||||||||||||||12345",
"[}}}}}}||||||||||||||||||||||||||||||||||||12345",
"[}}}}}}||||||||||||||||||||||||||||||||||||12345",
"[}}}}}}||||||||||||||||||||||||||||||||||||12345",
"[}}}}}}||||||||||||||||||||||||||||||||||||12345",
"[}}}}}}||||||||||||||||||||||||||||||||||||12345",
"[}}}}}}||||||||||||||||||||||||||||||||||||12345",
"[}}}}}}||||||||||||||||||||||||||||||||||||12345",
"[}}}}}}||||||||||||||||||||||||||||||||||||12345",
"67890abccccccccccccccccccccccccccccccccccccdefgh",
"67890abccccccccccccccccccccccccccccccccccccdefgh",
"67890abccccccccccccccccccccccccccccccccccccdefgh",
"67890abccccccccccccccccccccccccccccccccccccdefgh",
"67890abccccccccccccccccccccccccccccccccccccdefgh",
"67890abccccccccccccccccccccccccccccccccccccdefgh",
"67890abccccccccccccccccccccccccccccccccccccdefgh",
"67890abccccccccccccccccccccccccccccccccccccdefgh",
"67890abccccccccccccccccccccccccccccccccccccdefgh",
"67890abccccccccccccccccccccccccccccccccccccdefgh",
"6789ijkddddddddddddddddddddddddddddddddddddlmfgh",
"678nadmoooooooooooooooooooooooooooooooooooopqrgh",
"67stufvwwwwwwwwwwwwwwwwwwwwwwwwwwwwwwwwwwwwwvwxh",
"g9yzABCCCCCCCCCCCCCCCCCCCCCCCCCCCCCCCCCCCCCCDEDF",
"GHIJKLLLLLLLLLLLLLLLLLLLLLLLLLLLLLLLLLLLLLLLLLKM"};
