/* XPM */
static char * il_xpm[] = {
"48 48 73 1",
" 	c None",
".	c #CDCDCD",
"+	c #FFFFFF",
"@	c #DFDFDF",
"#	c #C1C1C1",
"$	c #BABABA",
"%	c #B9B9B9",
"&	c #757575",
"*	c #E7E7E7",
"=	c #F7F7F7",
"-	c #979797",
";	c #D4D4D4",
">	c #656565",
",	c #CBCBCB",
"'	c #DEDEDE",
")	c #525252",
"!	c #CACACA",
"~	c #EAEAEA",
"{	c #CECECE",
"]	c #4C4C4C",
"^	c #0000CA",
"/	c #0000FF",
"(	c #0000FE",
"_	c #0000F3",
":	c #0000E0",
"<	c #00004C",
"[	c #0000FA",
"}	c #0000F0",
"|	c #0000DF",
"1	c #0000C8",
"2	c #FEFEFE",
"3	c #FAFAFA",
"4	c #F0F0F0",
"5	c #C8C8C8",
"6	c #4141FE",
"7	c #3D3DFE",
"8	c #EBEBFE",
"9	c #0202FE",
"0	c #0707FE",
"a	c #1818FE",
"b	c #1212FE",
"c	c #2A2AFE",
"d	c #1515FE",
"e	c #5151FE",
"f	c #3434FE",
"g	c #0404FE",
"h	c #0303FE",
"i	c #EFEFFE",
"j	c #0606FE",
"k	c #2727FE",
"l	c #4E4EFE",
"m	c #2525FE",
"n	c #5555FE",
"o	c #FDFDFD",
"p	c #F8F8F8",
"q	c #EDEDED",
"r	c #E9E9E9",
"s	c #E6E6E6",
"t	c #DCDCDC",
"u	c #F3F3F3",
"v	c #D5D5D5",
"w	c #C5C5C5",
"x	c #ECECEC",
"y	c #BCBCBC",
"z	c #B7B7B7",
"A	c #4A4A4A",
"B	c #616161",
"C	c #B0B0B0",
"D	c #646464",
"E	c #373737",
"F	c #242424",
"G	c #202020",
"H	c #080808",
".+@#$%%%%%%%%%%%%%%%%%%%%%%%%%%%%%%%%%%%%%%%%%$&",
"+++++++++++++++++++++++++++++++++++++++++++++++*",
"=++++++++++++++++++++++++++++++++++++++++++++++-",
";++++++++++++++++++++++++++++++++++++++++++++++>",
",+++++++++++++++++++++++++++++++++++++++++++++')",
"!++++++++++++++++++++++++++++++++++++++++++++~{]",
"^//////////////////////////////////////////(_:^<",
"^//////(((((((((((((((((((((((((((((((((((([}|1<",
"^//////(((((((((((((((((((((((((((((((((((([}|1<",
"^//////(((((((((((((((((((((((((((((((((((([}|1<",
"^//////(((((((((((((((((((((((((((((((((((([}|1<",
"!++++++2222222222222222(222222222222222222234@5]",
"!++++++222222222222222(((22222222222222222234@5]",
"!++++++22222222222222(67((8222222222222222234@5]",
"!++++++2222222222222(9(2((0222222222222222234@5]",
"!++++++222222222222(a(222(((22222222222222234@5]",
"!++++++22222222222(((22222(((2222222222222234@5]",
"!+++((/bcccc(((((((((((((((((((((((ccccc(((34@5]",
"!++++(/(((((((((((((((((((((((((((((((((((234@5]",
"!+++++/((+++++++(((+++++++++(((+++++++(((2234@5]",
"!++++++(((22222(((+2222222222d((22222((d22234@5]",
"!++++++2(((222(((2222222222222a((222a(a222234@5]",
"!++++++22(((2(((222222222222222e((29(e2222234@5]",
"!++++++222((fgh22222222222222222(((((22222234@5]",
"!++++++2222(((2222222222222222222(((i22222234@5]",
"!++++++222((fj922222222222222222(((((22222234@5]",
"!++++++22(((2(((222222222222222e(929(e2222234@5]",
"!++++++2(((222(((2222222222222a(a222a(a222234@5]",
"!++++++(((22222(((+2222222222d((22222((d22234@5]",
"!+++++/((+++++++((k+++++++++(((+++++++((a2234@5]",
"!++++(/(((((((((((((((((((((((((((((((((((234@5]",
"!+++((((((((((((((((((((((((((((((((((cc(((34@5]",
"!++++++22222222222(((22222(((2222222222222234@5]",
"!++++++222222222222(((222(((22222222222222234@5]",
"!++++++2222222222222(((2l(0222222222222222234@5]",
"!++++++22222222222222((7(m8222222222222222234@5]",
"!++++++222222222222222((n22222222222222222234@5]",
"!++++++2222222222222222(222222222222222222234@5]",
"^//////(((((((((((((((((((((((((((((((((((([}|1<",
"^//////(((((((((((((((((((((((((((((((((((([}|1<",
"^//////(((((((((((((((((((((((((((((((((((([}|1<",
"^//////(((((((((((((((((((((((((((((((((((([}|1<",
"^//////(((((((((((((((((((((((((((((((((((([}|1<",
"!+++++opppppppppppppppppppppppppppppppppppp=q@5]",
"!++++pq~~~~~~~~~~~~~~~~~~~~~~~~~~~~~~~~~~~~rst5]",
"!+++u@v;;;;;;;;;;;;;;;;;;;;;;;;;;;;;;;;;;;;;v;w]",
"5++x,yzzzzzzzzzzzzzzzzzzzzzzzzzzzzzzzzzzzzzz%$%A",
"BCDEFGGGGGGGGGGGGGGGGGGGGGGGGGGGGGGGGGGGGGGGGGFH"};
