/* XPM */
static char * Lat2_xpm[] = {
"48 48 112 2",
"  	c None",
". 	c #007CFF",
"+ 	c #0080FF",
"@ 	c #0079FF",
"# 	c #0077FF",
"$ 	c #17D2FF",
"% 	c #B1F287",
"& 	c #007FFF",
"* 	c #0083FF",
"= 	c #007BFF",
"- 	c #007AFF",
"; 	c #18D6FF",
"> 	c #B5F88A",
", 	c #0078FF",
"' 	c #0071FB",
") 	c #0075FF",
"! 	c #0076FF",
"~ 	c #17D0FF",
"{ 	c #AFF086",
"] 	c #006FF8",
"^ 	c #006EF5",
"/ 	c #006DF2",
"( 	c #006DF3",
"_ 	c #0071FC",
": 	c #0072FD",
"< 	c #0070FA",
"[ 	c #16C6FF",
"} 	c #A7E580",
"| 	c #FFD582",
"1 	c #FF9D2A",
"2 	c #006BEE",
"3 	c #005FD4",
"4 	c #005ED2",
"5 	c #006CEF",
"6 	c #006EF4",
"7 	c #006AED",
"8 	c #15BCFF",
"9 	c #FFCA7B",
"0 	c #FF9528",
"a 	c #006AEC",
"b 	c #0067E5",
"c 	c #0052B7",
"d 	c #0055BE",
"e 	c #0068E7",
"f 	c #0066E3",
"g 	c #0065E0",
"h 	c #14B1FF",
"i 	c #FFBF75",
"j 	c #FF8D26",
"k 	c #FFDA9F",
"l 	c #0064DE",
"m 	c #0057C2",
"n 	c #004CAA",
"o 	c #0053BA",
"p 	c #006CF1",
"q 	c #0063DD",
"r 	c #0060D7",
"s 	c #0060D6",
"t 	c #13A9FF",
"u 	c #FF8624",
"v 	c #FFB66F",
"w 	c #FFD098",
"x 	c #005AC9",
"y 	c #004BA7",
"z 	c #0053B8",
"A 	c #0066E4",
"B 	c #0063DB",
"C 	c #12A6FC",
"D 	c #FD8423",
"E 	c #FDB36D",
"F 	c #E6C98B",
"G 	c #FDCC95",
"H 	c #005DCF",
"I 	c #0059C6",
"J 	c #004AA6",
"K 	c #D0C684",
"L 	c #64CBFB",
"M 	c #8CC06B",
"N 	c #F7CB93",
"O 	c #FACB94",
"P 	c #FDC68B",
"Q 	c #E4B58A",
"R 	c #0069EB",
"S 	c #0061D8",
"T 	c #005ED1",
"U 	c #005CCD",
"V 	c #12A3F6",
"W 	c #F7AF6B",
"X 	c #F78123",
"Y 	c #005CCC",
"Z 	c #0058C4",
"` 	c #0068E8",
" .	c #1199E8",
"..	c #E97A21",
"+.	c #0056C1",
"@.	c #0052B6",
"#.	c #004FB0",
"$.	c #004FAF",
"%.	c #0F8AD2",
"&.	c #D3955B",
"*.	c #D36E1D",
"=.	c #0049A3",
"-.	c #0057C3",
";.	c #004BA8",
">.	c #00469B",
",.	c #004498",
"'.	c #0D78B6",
").	c #004599",
"!.	c #00459A",
"~.	c #004DAD",
"{.	c #0051B5",
"].	c #004DAC",
". + @ # # # # $ % % % $ # # # # # # # # # # # # # # # # # # # # # # # # # # # # # # # # # # # # ",
"& * & = - - - - ; > > ; - - - - - - - - - - - - - - - - - - - - - - - - - - - - - - - - - - , @ ",
"' ) - , # ! ! ! ! ~ { ~ ! ! ! ! ~ ~ ~ ~ ~ ~ ~ ~ ! ! ! ! ! ! ! ! ! ! ! ! ! ! ! ! ! ! ! ! ! ) ] ^ ",
"/ ( _ : ' < < < < [ } } [ [ [ [ | 1 | | 1 1 | | [ < < < < < < < < < < < < < < < < < < < ] 2 3 4 ",
"/ 5 6 / 5 2 7 7 7 7 8 8 8 8 9 9 0 0 9 0 0 9 9 9 9 8 7 7 7 7 7 7 7 7 7 7 7 7 7 7 7 7 7 a b 3 c d ",
"/ 2 / 7 e f g g g g g g g g h i j j j j i i k k k h h h g g g g g g g g g g g g g g g l 3 m n o ",
"/ 2 p a b q r s s s s s s s t u u u v v w w w w w w w w t t s s s s s s s s s s s s s 4 x o y z ",
"/ 2 p a A B 3 4 4 4 4 4 4 4 C D D E F F F F G F F F G G G G C 4 4 4 4 4 4 4 4 4 4 4 4 H I z J z ",
"/ 2 p a A B 3 4 4 4 4 4 4 C D D D E K K K F F F F F F F F G C 4 4 4 4 4 4 4 4 4 4 4 4 H I z J z ",
"/ 2 p a A B 3 4 4 4 4 4 C E D D E K K K K K K K K K K K F F C 4 4 4 4 4 4 4 4 4 4 4 4 H I z J z ",
"/ 2 p a A B 3 4 4 4 4 4 C E D D E K K K K K K K K K K K K L M C C C 4 4 4 4 4 4 4 4 4 H I z J z ",
"/ 2 p a A B 3 4 4 4 4 4 C E D D E K K K K K K K K K K K K L L K K K C C C 4 4 4 4 4 4 H I z J z ",
"/ 2 p a A B 3 4 4 4 4 4 C C D D E F K K L L K K K K K L L K K K K K K K F C C 4 4 4 4 H I z J z ",
"/ 2 p a A B 3 4 4 4 4 C E E D D E E F K K K L L L L L K K K K K K K K F F E E C 4 4 4 H I z J z ",
"/ 2 p a A B 3 4 4 4 4 4 C E D D D E E K K K K K K K K K K K K K F F F F G E E C 4 4 4 H I z J z ",
"/ 2 p a A B 3 4 4 4 4 4 4 C E D D D E F K K K K K K K K K K K F F G G G E E E C 4 4 4 H I z J z ",
"/ 2 p a A B 3 4 4 4 4 4 4 C E E D D E E F F K K K K K K K K F F F G G E E E E C 4 4 4 H I z J z ",
"/ 2 p a A B 3 4 4 4 4 4 4 4 C E E D D D E E K K K K K K F F F G G G E E E E C 4 4 4 4 H I z J z ",
"/ 2 p a A B 3 4 4 4 4 4 4 4 4 C E E D D D E E F F K F K F F G G G E E E E C 4 4 4 4 4 H I z J z ",
"/ 2 p a A B 3 4 4 4 4 4 4 4 4 C E E E D D D E E F F F F N G G E E E E E E C 4 4 4 4 4 H I z J z ",
"/ 2 p a A B 3 4 4 4 4 4 4 4 4 C E E E D D D D E F F F F O E E E E E E E E C 4 4 4 4 4 H I z J z ",
"/ 2 p a A B 3 4 4 4 4 4 4 4 4 4 C C E E E D D E F G G G G G E E E E E E E C 4 4 4 4 4 H I z J z ",
"/ 2 p a A B 3 4 4 4 4 4 4 4 4 4 4 C C E E D D D E G G G G G G E E E E E E C 4 4 4 4 4 H I z J z ",
"/ 2 p a A B 3 4 4 4 4 4 4 4 4 4 4 4 C E E D D D E G F G G G G E E E E E C 4 4 4 4 4 4 H I z J z ",
"/ 2 p a A B 3 4 4 4 4 4 4 4 4 4 4 4 4 C E D D D E G F F G F G E E E E E C 4 4 4 4 4 4 H I z J z ",
"/ 2 p a A B 3 4 4 4 4 4 4 4 4 4 4 4 4 C E D D D E F F F F F G E E E C C 4 4 4 4 4 4 4 H I z J z ",
"/ 2 p a A B 3 4 4 4 4 4 4 4 4 4 4 4 4 C E D D E P F F F F G E E E C 4 4 4 4 4 4 4 4 4 H I z J z ",
"/ 2 p a A B 3 4 4 4 4 4 4 4 4 4 4 4 4 C E D D E F F F F F G E E C 4 4 4 4 4 4 4 4 4 4 H I z J z ",
"/ 2 p a A B 3 4 4 4 4 4 4 4 4 4 4 4 4 C E D D E F F F F F G G G C 4 4 4 4 4 4 4 4 4 4 H I z J z ",
"/ 2 p a A B 3 4 4 4 4 4 4 4 4 4 4 4 4 C E D D E F F F F F G G G C 4 4 4 4 4 4 4 4 4 4 H I z J z ",
"/ 2 p a A B 3 4 4 4 4 4 4 4 4 4 4 4 4 C E D D E G F F F F G G C 4 4 4 4 4 4 4 4 4 4 4 H I z J z ",
"/ 2 p a A B 3 4 4 4 4 4 4 4 4 4 4 4 4 4 C E D E G G G F G G C 4 4 4 4 4 4 4 4 4 4 4 4 H I z J z ",
"/ 2 p a A B 3 4 4 4 4 4 4 4 4 4 4 4 4 C D E D E G G G G G G C 4 4 4 4 4 4 4 4 4 4 4 4 H I z J z ",
"/ 2 p a A B 3 4 4 4 4 4 4 4 4 4 4 4 4 4 C E D E G G G Q C C 4 4 4 4 4 4 4 4 4 4 4 4 4 H I z J z ",
"/ 2 p a A B 3 4 4 4 4 4 4 4 4 4 4 4 4 C E E D E G G G G C 4 4 4 4 4 4 4 4 4 4 4 4 4 4 H I z J z ",
"/ 2 p a A B 3 4 4 4 4 4 4 4 4 4 4 4 4 C E D D E G G G G C 4 4 4 4 4 4 4 4 4 4 4 4 4 4 H I z J z ",
"/ 2 p a A B 3 4 4 4 4 4 4 4 4 4 4 4 4 C E D E G G G C C 4 4 4 4 4 4 4 4 4 4 4 4 4 4 4 H I z J z ",
"/ 2 p a A B 3 4 4 4 4 4 4 4 4 4 4 4 4 C E D E E C C C 4 4 4 4 4 4 4 4 4 4 4 4 4 4 4 4 H I z J z ",
"/ 2 p a A B 3 4 4 4 4 4 4 4 4 4 4 4 4 4 C E D E G C 4 4 4 4 4 4 4 4 4 4 4 4 4 4 4 4 4 H I z J z ",
"/ 2 p a A B 3 4 4 4 4 4 4 4 4 4 4 4 4 4 C E D E G C 4 4 4 4 4 4 4 4 4 4 4 4 4 4 4 4 4 H I z J z ",
"/ 2 p a A B 3 4 4 4 4 4 4 4 4 4 4 4 4 4 C E D E C 4 4 4 4 4 4 4 4 4 4 4 4 4 4 4 4 4 4 H I z J z ",
"/ 2 p a A B 3 4 4 4 4 4 4 4 4 4 4 4 4 4 C E D E C C 4 4 4 4 4 4 4 4 4 4 4 4 4 4 4 4 4 H I z J z ",
"/ 2 p a A B 3 4 4 4 4 4 4 4 4 4 4 4 4 4 C E D E E C 4 4 4 4 4 4 4 4 4 4 4 4 4 4 4 4 4 H I z J z ",
"/ 2 p R f S T U U U U U U U U U U U U U U V W X W V U U U U U U U U U U U U U U U U U Y Z z J z ",
"/ 2 p ` B U Z m m m m m m m m m m m m m m  . ..... .m m m  . .m m m m m m m m m m m m +.d @.J z ",
"/ 2 7 l x z #.$.$.$.$.$.$.$.$.$.$.$.$.$.$.$.%.&.*.%.$.$.$.$.$.$.$.$.$.$.$.$.$.$.$.$.$.$.#.$.=.@.",
"p R g -.;.>.,.,.,.,.,.,.,.,.,.,.,.,.,.,.,.,.,.'.'.'.,.,.,.,.,.,.,.,.,.,.,.,.,.,.,.,.,.,.).!.).~.",
"p a g I {.#.$.$.$.$.$.$.$.$.$.$.$.$.$.$.$.$.$.$.$.$.$.$.$.$.$.$.$.$.$.$.$.$.$.$.$.$.$.$.$.$.].@."};
