/* XPM */
static char * lb_xpm[] = {
"48 48 63 1",
" 	c None",
".	c #CC0000",
"+	c #FF0000",
"@	c #DE0000",
"#	c #C00000",
"$	c #B90000",
"%	c #B80000",
"&	c #740000",
"*	c #E70000",
"=	c #F60000",
"-	c #960000",
";	c #D30000",
">	c #650000",
",	c #CA0000",
"'	c #DD0000",
")	c #510000",
"!	c #C90000",
"~	c #E90000",
"{	c #CD0000",
"]	c #4C0000",
"^	c #FD0000",
"/	c #F20000",
"(	c #DF0000",
"_	c #F90000",
":	c #EF0000",
"<	c #C80000",
"[	c #CACACA",
"}	c #FFFFFF",
"|	c #FEFEFE",
"1	c #FAFAFA",
"2	c #F0F0F0",
"3	c #DFDFDF",
"4	c #C8C8C8",
"5	c #4C4C4C",
"6	c #007700",
"7	c #C7DFC7",
"8	c #077F07",
"9	c #97C797",
"0	c #E7EFE7",
"a	c #278F27",
"b	c #379737",
"c	c #B7D7B7",
"d	c #57A757",
"e	c #87BF87",
"f	c #FC0000",
"g	c #F70000",
"h	c #EC0000",
"i	c #E80000",
"j	c #E50000",
"k	c #DB0000",
"l	c #D40000",
"m	c #C50000",
"n	c #EB0000",
"o	c #BB0000",
"p	c #B70000",
"q	c #4A0000",
"r	c #610000",
"s	c #B00000",
"t	c #640000",
"u	c #360000",
"v	c #240000",
"w	c #200000",
"x	c #080000",
".+@#$%%%%%%%%%%%%%%%%%%%%%%%%%%%%%%%%%%%%%%%%%$&",
"+++++++++++++++++++++++++++++++++++++++++++++++*",
"=++++++++++++++++++++++++++++++++++++++++++++++-",
";++++++++++++++++++++++++++++++++++++++++++++++>",
",+++++++++++++++++++++++++++++++++++++++++++++')",
"!++++++++++++++++++++++++++++++++++++++++++++~{]",
"!++++++++++++++++++++++++++++++++++++++++++^/(!]",
"!++++++^^^^^^^^^^^^^^^^^^^^^^^^^^^^^^^^^^^^_:@<]",
"!++++++^^^^^^^^^^^^^^^^^^^^^^^^^^^^^^^^^^^^_:@<]",
"!++++++^^^^^^^^^^^^^^^^^^^^^^^^^^^^^^^^^^^^_:@<]",
"[}}}}}}||||||||||||||||||||||||||||||||||||12345",
"[}}}}}}||||||||||||||||||||||||||||||||||||12345",
"[}}}}}}||||||||||||||||||||||||||||||||||||12345",
"[}}}}}}||||||||||||||||||||||||||||||||||||12345",
"[}}}}}}||||||||||||||||||||||||||||||||||||12345",
"[}}}}}}||||||||||||||||66||||||||||||||||||12345",
"[}}}}}}||||||||||||||766666||||||||||||||||12345",
"[}}}}}}||||||||||||||86666666||||||||||||||12345",
"[}}}}}}|||||||||||||906a60b6a||||||||||||||12345",
"[}}}}}}||||||||||||06ac66666|bd||||||||||||12345",
"[}}}}}}|||||||||||a6666a||666||||||||||||||12345",
"[}}}}}}||||||||||69|8666666e668||||||||||||12345",
"[}}}}}}||||||||||||666666666|6b6a||||||||||12345",
"[}}}}}}||||||||||b66668a|86666667||||||||||12345",
"[}}}}}}|||||||||66b986666d6666ccc||||||||||12345",
"[}}}}}}||||||||69|6666666666b666|||||||||||12345",
"[}}}}}}|||||||||766666666666bd|660|||||||||12345",
"[}}}}}}||||||||666a66b0a6666666||c|||||||||12345",
"[}}}}}}||||||766||666666666b6666a||||||||||12345",
"[}}}}}}||||||||8669||a6666b|||||660||||||||12345",
"[}}}}}}||||||||||||||66666b|||||||c||||||||12345",
"[}}}}}}||||||||||||||666666||||||||||||||||12345",
"[}}}}}}||||||||||||76|||8668|||||||||||||||12345",
"[}}}}}}|||||||||||7||||||d||6||||||||||||||12345",
"[}}}}}}||||||||||||||||||||||||||||||||||||12345",
"[}}}}}}||||||||||||||||||||||||||||||||||||12345",
"[}}}}}}||||||||||||||||||||||||||||||||||||12345",
"[}}}}}}||||||||||||||||||||||||||||||||||||12345",
"!++++++^^^^^^^^^^^^^^^^^^^^^^^^^^^^^^^^^^^^_:@<]",
"!++++++^^^^^^^^^^^^^^^^^^^^^^^^^^^^^^^^^^^^_:@<]",
"!++++++^^^^^^^^^^^^^^^^^^^^^^^^^^^^^^^^^^^^_:@<]",
"!++++++^^^^^^^^^^^^^^^^^^^^^^^^^^^^^^^^^^^^_:@<]",
"!++++++^^^^^^^^^^^^^^^^^^^^^^^^^^^^^^^^^^^^_:@<]",
"!+++++fgggggggggggggggggggggggggggggggggggg=h@<]",
"!++++gh~~~~~~~~~~~~~~~~~~~~~~~~~~~~~~~~~~~~ijk<]",
"!+++/@l;;;;;;;;;;;;;;;;;;;;;;;;;;;;;;;;;;;;;l;m]",
"<++n,opppppppppppppppppppppppppppppppppppppp%$%q",
"rstuvwwwwwwwwwwwwwwwwwwwwwwwwwwwwwwwwwwwwwwwwwvx"};
