/* XPM */
static char * pl_xpm[] = {
"48 48 60 1",
" 	c None",
".	c #CDCDCD",
"+	c #FFFFFF",
"@	c #DFDFDF",
"#	c #C1C1C1",
"$	c #BABABA",
"%	c #B9B9B9",
"&	c #757575",
"*	c #E7E7E7",
"=	c #F7F7F7",
"-	c #979797",
";	c #D4D4D4",
">	c #656565",
",	c #CBCBCB",
"'	c #DEDEDE",
")	c #525252",
"!	c #CACACA",
"~	c #EAEAEA",
"{	c #CECECE",
"]	c #4C4C4C",
"^	c #FEFEFE",
"/	c #F3F3F3",
"(	c #E0E0E0",
"_	c #FAFAFA",
":	c #F0F0F0",
"<	c #C8C8C8",
"[	c #CA0000",
"}	c #FF0000",
"|	c #FE0000",
"1	c #FA0000",
"2	c #F00000",
"3	c #DF0000",
"4	c #C80000",
"5	c #4C0000",
"6	c #FD0000",
"7	c #F80000",
"8	c #F70000",
"9	c #ED0000",
"0	c #EA0000",
"a	c #E90000",
"b	c #E60000",
"c	c #DC0000",
"d	c #F30000",
"e	c #D50000",
"f	c #D40000",
"g	c #C50000",
"h	c #EC0000",
"i	c #CB0000",
"j	c #BC0000",
"k	c #B70000",
"l	c #B90000",
"m	c #BA0000",
"n	c #4A0000",
"o	c #610000",
"p	c #B00000",
"q	c #640000",
"r	c #370000",
"s	c #240000",
"t	c #200000",
"u	c #080000",
".+@#$%%%%%%%%%%%%%%%%%%%%%%%%%%%%%%%%%%%%%%%%%$&",
"+++++++++++++++++++++++++++++++++++++++++++++++*",
"=++++++++++++++++++++++++++++++++++++++++++++++-",
";++++++++++++++++++++++++++++++++++++++++++++++>",
",+++++++++++++++++++++++++++++++++++++++++++++')",
"!++++++++++++++++++++++++++++++++++++++++++++~{]",
"!++++++++++++++++++++++++++++++++++++++++++^/(!]",
"!++++++^^^^^^^^^^^^^^^^^^^^^^^^^^^^^^^^^^^^_:@<]",
"!++++++^^^^^^^^^^^^^^^^^^^^^^^^^^^^^^^^^^^^_:@<]",
"!++++++^^^^^^^^^^^^^^^^^^^^^^^^^^^^^^^^^^^^_:@<]",
"!++++++^^^^^^^^^^^^^^^^^^^^^^^^^^^^^^^^^^^^_:@<]",
"!++++++^^^^^^^^^^^^^^^^^^^^^^^^^^^^^^^^^^^^_:@<]",
"!++++++^^^^^^^^^^^^^^^^^^^^^^^^^^^^^^^^^^^^_:@<]",
"!++++++^^^^^^^^^^^^^^^^^^^^^^^^^^^^^^^^^^^^_:@<]",
"!++++++^^^^^^^^^^^^^^^^^^^^^^^^^^^^^^^^^^^^_:@<]",
"!++++++^^^^^^^^^^^^^^^^^^^^^^^^^^^^^^^^^^^^_:@<]",
"!++++++^^^^^^^^^^^^^^^^^^^^^^^^^^^^^^^^^^^^_:@<]",
"!++++++^^^^^^^^^^^^^^^^^^^^^^^^^^^^^^^^^^^^_:@<]",
"!++++++^^^^^^^^^^^^^^^^^^^^^^^^^^^^^^^^^^^^_:@<]",
"!++++++^^^^^^^^^^^^^^^^^^^^^^^^^^^^^^^^^^^^_:@<]",
"!++++++^^^^^^^^^^^^^^^^^^^^^^^^^^^^^^^^^^^^_:@<]",
"!++++++^^^^^^^^^^^^^^^^^^^^^^^^^^^^^^^^^^^^_:@<]",
"!++++++^^^^^^^^^^^^^^^^^^^^^^^^^^^^^^^^^^^^_:@<]",
"!++++++^^^^^^^^^^^^^^^^^^^^^^^^^^^^^^^^^^^^_:@<]",
"[}}}}}}||||||||||||||||||||||||||||||||||||12345",
"[}}}}}}||||||||||||||||||||||||||||||||||||12345",
"[}}}}}}||||||||||||||||||||||||||||||||||||12345",
"[}}}}}}||||||||||||||||||||||||||||||||||||12345",
"[}}}}}}||||||||||||||||||||||||||||||||||||12345",
"[}}}}}}||||||||||||||||||||||||||||||||||||12345",
"[}}}}}}||||||||||||||||||||||||||||||||||||12345",
"[}}}}}}||||||||||||||||||||||||||||||||||||12345",
"[}}}}}}||||||||||||||||||||||||||||||||||||12345",
"[}}}}}}||||||||||||||||||||||||||||||||||||12345",
"[}}}}}}||||||||||||||||||||||||||||||||||||12345",
"[}}}}}}||||||||||||||||||||||||||||||||||||12345",
"[}}}}}}||||||||||||||||||||||||||||||||||||12345",
"[}}}}}}||||||||||||||||||||||||||||||||||||12345",
"[}}}}}}||||||||||||||||||||||||||||||||||||12345",
"[}}}}}}||||||||||||||||||||||||||||||||||||12345",
"[}}}}}}||||||||||||||||||||||||||||||||||||12345",
"[}}}}}}||||||||||||||||||||||||||||||||||||12345",
"[}}}}}}||||||||||||||||||||||||||||||||||||12345",
"[}}}}}677777777777777777777777777777777777789345",
"[}}}}79000000000000000000000000000000000000abc45",
"[}}}d3efffffffffffffffffffffffffffffffffffffefg5",
"4}}hijkkkkkkkkkkkkkkkkkkkkkkkkkkkkkkkkkkkkkklmln",
"opqrstttttttttttttttttttttttttttttttttttttttttsu"};
