/* XPM */
static char * sv_xpm[] = {
"48 48 98 2",
"  	c None",
". 	c #005597",
"+ 	c #006EC4",
"@ 	c #005CA4",
"# 	c #00508E",
"$ 	c #004D89",
"% 	c #004D88",
"& 	c #B9AF03",
"* 	c #003056",
"= 	c #007DDF",
"- 	c #0092FF",
"; 	c #008EFC",
"> 	c #0089F3",
", 	c #0088F1",
"' 	c #FFFF06",
") 	c #0086EE",
"! 	c #0060AA",
"~ 	c #0066B6",
"{ 	c #0083E8",
"] 	c #0088F2",
"^ 	c #0084EB",
"/ 	c #0084EA",
"( 	c #007CDD",
"_ 	c #003E6F",
": 	c #00589C",
"< 	c #007AD8",
"[ 	c #007EE1",
"} 	c #007FE2",
"| 	c #007EE0",
"1 	c #FFFF05",
"2 	c #0077D4",
"3 	c #006ABD",
"4 	c #002A4B",
"5 	c #005496",
"6 	c #0078D5",
"7 	c #007AD9",
"8 	c #0079D7",
"9 	c #0077D3",
"0 	c #0076D2",
"a 	c #0073CC",
"b 	c #005CA3",
"c 	c #00223C",
"d 	c #005495",
"e 	c #0074CE",
"f 	c #0072CA",
"g 	c #0070C8",
"h 	c #006FC6",
"i 	c #0061AD",
"j 	c #005598",
"k 	c #001F38",
"l 	c #0079D6",
"m 	c #006FC5",
"n 	c #006CBF",
"o 	c #006BBE",
"p 	c #FFF505",
"q 	c #0069BB",
"r 	c #0065B3",
"s 	c #005DA5",
"t 	c #0072CB",
"u 	c #FEF104",
"v 	c #0068B8",
"w 	c #0063B1",
"x 	c #005394",
"y 	c #CABF03",
"z 	c #FFFC05",
"A 	c #FFF405",
"B 	c #FAED04",
"C 	c #F0E404",
"D 	c #DFD404",
"E 	c #C8BE03",
"F 	c #4C4801",
"G 	c #0076D1",
"H 	c #006CC0",
"I 	c #0069BA",
"J 	c #0067B7",
"K 	c #F8EC04",
"L 	c #0062AF",
"M 	c #0074CF",
"N 	c #EADE04",
"O 	c #0060AC",
"P 	c #005FA9",
"Q 	c #005BA2",
"R 	c #00589D",
"S 	c #D4C904",
"T 	c #005291",
"U 	c #0062AE",
"V 	c #004E8A",
"W 	c #004C87",
"X 	c #B7AE03",
"Y 	c #001F37",
"Z 	c #002847",
"` 	c #004982",
" .	c #00294A",
"..	c #001628",
"+.	c #000F1B",
"@.	c #000D17",
"#.	c #201E00",
"$.	c #000306",
". + @ # $ % % % % % % % % % % & & & & & & & & & % % % % % % % % % % % % % % % % % % % % % % $ * ",
"= - ; > , , , , , , , , , , , ' ' ' ' ' ' ' ' ' , , , , , , , , , , , , , , , , , , , , , , ) ! ",
"~ { ] ) ^ / / / / / / / / / / ' ' ' ' ' ' ' ' ' / / / / / / / / / / / / / / / / / / / / / { ( _ ",
": < [ } | = = = = = = = = = = 1 1 1 1 1 1 1 1 1 = = = = = = = = = = = = = = = = = = = = ( 2 3 4 ",
"5 6 7 8 6 2 9 9 9 9 9 9 9 9 9 1 1 1 1 1 1 1 1 1 9 9 9 9 9 9 9 9 9 9 9 9 9 9 9 9 9 9 9 0 a 3 b c ",
"d 2 8 9 e f g g g g g g g g g 1 1 1 1 1 1 1 1 1 g g g g g g g g g g g g g g g g g g g h 3 i j k ",
"d 2 l 0 a m n o o o o o o o o p p p p p p p p p o o o o o o o o o o o o o o o o o o o q r s d k ",
"d 2 l 0 t + 3 q q q q q q q q u u u u u u u u u q q q q q q q q q q q q q q q q q q q v w @ x k ",
"d 2 l 0 t + 3 q q q q q q q q u u u u u u u u u q q q q q q q q q q q q q q q q q q q v w @ x k ",
"d 2 l 0 t + 3 q q q q q q q q u u u u u u u u u q q q q q q q q q q q q q q q q q q q v w @ x k ",
"d 2 l 0 t + 3 q q q q q q q q u u u u u u u u u q q q q q q q q q q q q q q q q q q q v w @ x k ",
"d 2 l 0 t + 3 q q q q q q q q u u u u u u u u u q q q q q q q q q q q q q q q q q q q v w @ x k ",
"d 2 l 0 t + 3 q q q q q q q q u u u u u u u u u q q q q q q q q q q q q q q q q q q q v w @ x k ",
"d 2 l 0 t + 3 q q q q q q q q u u u u u u u u u q q q q q q q q q q q q q q q q q q q v w @ x k ",
"d 2 l 0 t + 3 q q q q q q q q u u u u u u u u u q q q q q q q q q q q q q q q q q q q v w @ x k ",
"d 2 l 0 t + 3 q q q q q q q q u u u u u u u u u q q q q q q q q q q q q q q q q q q q v w @ x k ",
"d 2 l 0 t + 3 q q q q q q q q u u u u u u u u u q q q q q q q q q q q q q q q q q q q v w @ x k ",
"d 2 l 0 t + 3 q q q q q q q q u u u u u u u u u q q q q q q q q q q q q q q q q q q q v w @ x k ",
"d 2 l 0 t + 3 q q q q q q q q u u u u u u u u u q q q q q q q q q q q q q q q q q q q v w @ x k ",
"d 2 l 0 t + 3 q q q q q q q q u u u u u u u u u q q q q q q q q q q q q q q q q q q q v w @ x k ",
"y 1 1 1 1 z A u u u u u u u u u u u u u u u u u u u u u u u u u u u u u u u u u u u u B C D E F ",
"y 1 1 1 1 z A u u u u u u u u u u u u u u u u u u u u u u u u u u u u u u u u u u u u B C D E F ",
"y 1 1 1 1 z A u u u u u u u u u u u u u u u u u u u u u u u u u u u u u u u u u u u u B C D E F ",
"y 1 1 1 1 z A u u u u u u u u u u u u u u u u u u u u u u u u u u u u u u u u u u u u B C D E F ",
"y 1 1 1 1 z A u u u u u u u u u u u u u u u u u u u u u u u u u u u u u u u u u u u u B C D E F ",
"y 1 1 1 1 z A u u u u u u u u u u u u u u u u u u u u u u u u u u u u u u u u u u u u B C D E F ",
"y 1 1 1 1 z A u u u u u u u u u u u u u u u u u u u u u u u u u u u u u u u u u u u u B C D E F ",
"y 1 1 1 1 z A u u u u u u u u u u u u u u u u u u u u u u u u u u u u u u u u u u u u B C D E F ",
"y 1 1 1 1 z A u u u u u u u u u u u u u u u u u u u u u u u u u u u u u u u u u u u u B C D E F ",
"d 2 l 0 t + 3 q q q q q q q q u u u u u u u u u q q q q q q q q q q q q q q q q q q q v w @ x k ",
"d 2 l 0 t + 3 q q q q q q q q u u u u u u u u u q q q q q q q q q q q q q q q q q q q v w @ x k ",
"d 2 l 0 t + 3 q q q q q q q q u u u u u u u u u q q q q q q q q q q q q q q q q q q q v w @ x k ",
"d 2 l 0 t + 3 q q q q q q q q u u u u u u u u u q q q q q q q q q q q q q q q q q q q v w @ x k ",
"d 2 l 0 t + 3 q q q q q q q q u u u u u u u u u q q q q q q q q q q q q q q q q q q q v w @ x k ",
"d 2 l 0 t + 3 q q q q q q q q u u u u u u u u u q q q q q q q q q q q q q q q q q q q v w @ x k ",
"d 2 l 0 t + 3 q q q q q q q q u u u u u u u u u q q q q q q q q q q q q q q q q q q q v w @ x k ",
"d 2 l 0 t + 3 q q q q q q q q u u u u u u u u u q q q q q q q q q q q q q q q q q q q v w @ x k ",
"d 2 l 0 t + 3 q q q q q q q q u u u u u u u u u q q q q q q q q q q q q q q q q q q q v w @ x k ",
"d 2 l 0 t + 3 q q q q q q q q u u u u u u u u u q q q q q q q q q q q q q q q q q q q v w @ x k ",
"d 2 l 0 t + 3 q q q q q q q q u u u u u u u u u q q q q q q q q q q q q q q q q q q q v w @ x k ",
"d 2 l 0 t + 3 q q q q q q q q u u u u u u u u u q q q q q q q q q q q q q q q q q q q v w @ x k ",
"d 2 l 0 t + 3 q q q q q q q q u u u u u u u u u q q q q q q q q q q q q q q q q q q q v w @ x k ",
"d 2 l 0 t + 3 q q q q q q q q u u u u u u u u u q q q q q q q q q q q q q q q q q q q v w @ x k ",
"d 2 l G f H I J J J J J J J J K K K K K K K K K J J J J J J J J J J J J J J J J J J J ~ L @ x k ",
"d 2 l M + J L i i i i i i i i N N N N N N N N N i i i i i i i i i i i i i i i i i i i O P Q x k ",
"d 2 9 h r @ R : : : : : : : : S S S S S S S S S : : : : : : : : : : : : : : : : : : : : R : T k ",
"x G g U 5 V W W W W W W W W W X X X X X X X X X W W W W W W W W W W W W W W W W W W W W % $ % Y ",
"Z `  ...+.@.@.@.@.@.@.@.@.@.@.#.#.#.#.#.#.#.#.#.@.@.@.@.@.@.@.@.@.@.@.@.@.@.@.@.@.@.@.@.@.@.+.$."};
