/* XPM */
static char * tr_xpm[] = {
"48 48 30 1",
" 	c None",
".	c #E70000",
"+	c #FF0000",
"@	c #EA0000",
"#	c #D40000",
"$	c #B70000",
"%	c #F60000",
"&	c #C70000",
"*	c #DF0000",
"=	c #9E0000",
"-	c #900000",
";	c #FE0000",
">	c #F30000",
",	c #FA0000",
"'	c #F00000",
")	c #FEFEFE",
"!	c #FD0000",
"~	c #F80000",
"{	c #ED0000",
"]	c #F40000",
"^	c #DC0000",
"/	c #D60000",
"(	c #D80000",
"_	c #AF0000",
":	c #E30000",
"<	c #A40000",
"[	c #7D0000",
"}	c #6F0000",
"|	c #730000",
"1	c #720000",
".+@############################################$",
"++++++++++++++++++++++++++++++++++++++++++++++++",
"%++++++++++++++++++++++++++++++++++++++++++++++&",
"*++++++++++++++++++++++++++++++++++++++++++++++=",
"*+++++++++++++++++++++++++++++++++++++++++++++.-",
"*+++++++++++++++++++++++++++++++++++++++++++;>*-",
"*+++++;;;;;;;;;;;;;;;;;;;;;;;;;;;;;;;;;;;;;;,'*-",
"*+++++;;;;;;;;;;;;;;;;;;;;;;;;;;;;;;;;;;;;;;,'*-",
"*+++++;;;;;;;;;;;;;;;;;;;;;;;;;;;;;;;;;;;;;;,'*-",
"*+++++;;;;;;;;;;;;;;;;;;;;;;;;;;;;;;;;;;;;;;,'*-",
"*+++++;;;;;;;;;;;;;;;;;;;;;;;;;;;;;;;;;;;;;;,'*-",
"*+++++;;;;;;;;;;;;;;;;;;;;;;;;;;;;;;;;;;;;;;,'*-",
"*+++++;;;;;;;;;;;;;;;;;;;;;;;;;;;;;;;;;;;;;;,'*-",
"*+++++;;;;;;;;;;))))))));;;;;;;;;;;;;;;;;;;;,'*-",
"*+++++;;;;;;;;)))))))))));;;;;;;;;;;;;;;;;;;,'*-",
"*+++++;;;;;;)))))))));;;;);;;;;;;);;;;;;;;;;,'*-",
"*+++++;;;;;))))))));;;;;;;;;;;;;;);;;;;;;;;;,'*-",
"*+++++;;;;))))))));;;;;;;;;;;;;;)));;;;;;;;;,'*-",
"*+++++;;;)))))));;;;;;;;;;;;;;;;)));;;;;;;;;,'*-",
"*+++++;;))))))));;;;;;;;;;;;;;;)))));;;;;;;;,'*-",
"*+++++;;)))))));;;;;;;;;;;)))))))))))))));;;,'*-",
"*+++++;;)))))));;;;;;;;;;;;)))))))))))));;;;,'*-",
"*+++++;)))))));;;;;;;;;;;;;;)))))))))));;;;;,'*-",
"*+++++;)))))));;;;;;;;;;;;;;;)))))))));;;;;;,'*-",
"*+++++;)))))));;;;;;;;;;;;;;;;)))))));;;;;;;,'*-",
"*+++++;)))))));;;;;;;;;;;;;;;;)))))));;;;;;;,'*-",
"*+++++;)))))));;;;;;;;;;;;;;;;)))))));;;;;;;,'*-",
"*+++++;)))))));;;;;;;;;;;;;;;)))))))));;;;;;,'*-",
"*+++++;;)))))));;;;;;;;;;;;;;)));;;)));;;;;;,'*-",
"*+++++;;)))))));;;;;;;;;;;;;)));;;;;)));;;;;,'*-",
"*+++++;;))))))));;;;;;;;;;;;));;;;;;;));;;;;,'*-",
"*+++++;;;)))))));;;;;;;;;;;;);;;;;;;;;);;;;;,'*-",
"*+++++;;;;))))))));;;;;;;;;;;;;;;;;;;;;;;;;;,'*-",
"*+++++;;;;;))))))));;;;;;;;;;;;;;;;;;;;;;;;;,'*-",
"*+++++;;;;;;)))))))));;;;);;;;;;;;;;;;;;;;;;,'*-",
"*+++++;;;;;;;;)))))))))));;;;;;;;;;;;;;;;;;;,'*-",
"*+++++;;;;;;;;;;))))))));;;;;;;;;;;;;;;;;;;;,'*-",
"*+++++;;;;;;;;;;;;;;;;;;;;;;;;;;;;;;;;;;;;;;,'*-",
"*+++++;;;;;;;;;;;;;;;;;;;;;;;;;;;;;;;;;;;;;;,'*-",
"*+++++;;;;;;;;;;;;;;;;;;;;;;;;;;;;;;;;;;;;;;,'*-",
"*+++++;;;;;;;;;;;;;;;;;;;;;;;;;;;;;;;;;;;;;;,'*-",
"*+++++;;;;;;;;;;;;;;;;;;;;;;;;;;;;;;;;;;;;;;,'*-",
"*+++++;;;;;;;;;;;;;;;;;;;;;;;;;;;;;;;;;;;;;;,'*-",
"*+++++;;;;;;;;;;;;;;;;;;;;;;;;;;;;;;;;;;;;;;,'*-",
"*++++!~~~~~~~~~~~~~~~~~~~~~~~~~~~~~~~~~~~~~~~'*-",
"*+++,{@@@@@@@@@@@@@@@@@@@@@@@@@@@@@@@@@@@@@@@@*-",
"*++]^########################################/(-",
"_:<[}}}}}}}}}}}}}}}}}}}}}}}}}}}}}}}}}}}}}}}}}}|1"};
