/* XPM */
static char * ye_xpm[] = {
"48 48 35 1",
" 	c None",
".	c #CD0000",
"+	c #FF0000",
"@	c #DF0000",
"#	c #C10000",
"$	c #BA0000",
"%	c #B90000",
"&	c #750000",
"*	c #E70000",
"=	c #F70000",
"-	c #970000",
";	c #D40000",
">	c #650000",
",	c #CB0000",
"'	c #DE0000",
")	c #520000",
"!	c #CA0000",
"~	c #EA0000",
"{	c #CE0000",
"]	c #4C0000",
"^	c #FE0000",
"/	c #F30000",
"(	c #E00000",
"_	c #FA0000",
":	c #F00000",
"<	c #C80000",
"[	c #CACACA",
"}	c #FFFFFF",
"|	c #FEFEFE",
"1	c #FAFAFA",
"2	c #F0F0F0",
"3	c #DFDFDF",
"4	c #C8C8C8",
"5	c #4C4C4C",
"6	c #000000",
".+@#$%%%%%%%%%%%%%%%%%%%%%%%%%%%%%%%%%%%%%%%%%$&",
"+++++++++++++++++++++++++++++++++++++++++++++++*",
"=++++++++++++++++++++++++++++++++++++++++++++++-",
";++++++++++++++++++++++++++++++++++++++++++++++>",
",+++++++++++++++++++++++++++++++++++++++++++++')",
"!++++++++++++++++++++++++++++++++++++++++++++~{]",
"!++++++++++++++++++++++++++++++++++++++++++^/(!]",
"!++++++^^^^^^^^^^^^^^^^^^^^^^^^^^^^^^^^^^^^_:@<]",
"!++++++^^^^^^^^^^^^^^^^^^^^^^^^^^^^^^^^^^^^_:@<]",
"!++++++^^^^^^^^^^^^^^^^^^^^^^^^^^^^^^^^^^^^_:@<]",
"!++++++^^^^^^^^^^^^^^^^^^^^^^^^^^^^^^^^^^^^_:@<]",
"!++++++^^^^^^^^^^^^^^^^^^^^^^^^^^^^^^^^^^^^_:@<]",
"!++++++^^^^^^^^^^^^^^^^^^^^^^^^^^^^^^^^^^^^_:@<]",
"!++++++^^^^^^^^^^^^^^^^^^^^^^^^^^^^^^^^^^^^_:@<]",
"!++++++^^^^^^^^^^^^^^^^^^^^^^^^^^^^^^^^^^^^_:@<]",
"!++++++^^^^^^^^^^^^^^^^^^^^^^^^^^^^^^^^^^^^_:@<]",
"!++++++^^^^^^^^^^^^^^^^^^^^^^^^^^^^^^^^^^^^_:@<]",
"[}}}}}}||||||||||||||||||||||||||||||||||||12345",
"[}}}}}}||||||||||||||||||||||||||||||||||||12345",
"[}}}}}}||||||||||||||||||||||||||||||||||||12345",
"[}}}}}}||||||||||||||||||||||||||||||||||||12345",
"[}}}}}}||||||||||||||||||||||||||||||||||||12345",
"[}}}}}}||||||||||||||||||||||||||||||||||||12345",
"[}}}}}}||||||||||||||||||||||||||||||||||||12345",
"[}}}}}}||||||||||||||||||||||||||||||||||||12345",
"[}}}}}}||||||||||||||||||||||||||||||||||||12345",
"[}}}}}}||||||||||||||||||||||||||||||||||||12345",
"[}}}}}}||||||||||||||||||||||||||||||||||||12345",
"[}}}}}}||||||||||||||||||||||||||||||||||||12345",
"[}}}}}}||||||||||||||||||||||||||||||||||||12345",
"[}}}}}}||||||||||||||||||||||||||||||||||||12345",
"[}}}}}}||||||||||||||||||||||||||||||||||||12345",
"666666666666666666666666666666666666666666666666",
"666666666666666666666666666666666666666666666666",
"666666666666666666666666666666666666666666666666",
"666666666666666666666666666666666666666666666666",
"666666666666666666666666666666666666666666666666",
"666666666666666666666666666666666666666666666666",
"666666666666666666666666666666666666666666666666",
"666666666666666666666666666666666666666666666666",
"666666666666666666666666666666666666666666666666",
"666666666666666666666666666666666666666666666666",
"666666666666666666666666666666666666666666666666",
"666666666666666666666666666666666666666666666666",
"666666666666666666666666666666666666666666666666",
"666666666666666666666666666666666666666666666666",
"666666666666666666666666666666666666666666666666",
"666666666666666666666666666666666666666666666666"};
