/* XPM */
static char * yu_xpm[] = {
"48 48 47 1",
" 	c None",
".	c #0000E7",
"+	c #0000FF",
"@	c #0000E9",
"#	c #0000D3",
"$	c #0000B7",
"%	c #0000F5",
"&	c #0000C6",
"*	c #0000DE",
"=	c #00009D",
"-	c #0000FE",
";	c #00008F",
">	c #0000FD",
",	c #0000F2",
"'	c #0000F9",
")	c #0000EF",
"!	c #00CB00",
"~	c #FDFD00",
"{	c #DFDFDF",
"]	c #FFFFFF",
"^	c #FEFEFE",
"/	c #FAFAFA",
"(	c #F0F0F0",
"_	c #909090",
":	c #FEB03C",
"<	c #FD0000",
"[	c #DE0000",
"}	c #FF0000",
"|	c #F90000",
"1	c #EF0000",
"2	c #8F0000",
"3	c #FC0000",
"4	c #F70000",
"5	c #EC0000",
"6	c #E90000",
"7	c #F30000",
"8	c #DB0000",
"9	c #D30000",
"0	c #D60000",
"a	c #D70000",
"b	c #AE0000",
"c	c #E20000",
"d	c #A30000",
"e	c #7D0000",
"f	c #6F0000",
"g	c #730000",
"h	c #720000",
".+@############################################$",
"++++++++++++++++++++++++++++++++++++++++++++++++",
"%++++++++++++++++++++++++++++++++++++++++++++++&",
"*++++++++++++++++++++++++++++++++++++++++++++++=",
"*++++++++++++++++++++++++++++++++++++++++++++-.;",
"*+++++++++++++++++++++++++++++++++++++++++++>,*;",
"*+++++>>>>>>>>>>>>>>>>>>>>>>>>>>>>>>>>>>>>>>')*;",
"*+++++>>>>>>>>>>>>>>>>>>>>>>>>>>>>>>>>>>>>>>')*;",
"*+++++>>>>>>>>>>>>>>>>>>>>>>>>>>>>>>>>>>>>>>')*;",
"*+++++>>>>>>>>>>>>>>>>>>>>>>>>>>>>>>>>>>>>>>')*;",
"*+++++>>>>>>>>>>>>>>>>>>>>>>>>>>>>>>>>>>>>>>')*;",
"*+++++>>>>>>>>>>>>>>>>>>>>>>>>>>>>>>>>>>>>>>')*;",
"*+++++>>>>>>>>>>>>>>>>>>>>>>>>>>>>>>>>>>>>>>')*;",
"*+++++>>>>>>>>>>>>>>>>>!!>>>>>>>>>>>>>>>>>>>')*;",
"*+++++>>>>>>>>>>>>>>>>>~~>>>>>>>>>>>>>>>>>>>')*;",
"*+++++>>>>>>>>>>>>>>>>>~~>>>>>>>>>>>>>>>>>>>')*;",
"{]]]]]^^^^^^^^^^^^^^^^~~~~^^^^^^^^^^^^^^^^^^/({_",
"{]]]]]^^^^^^^^^^^^^^^^~::~^^^^^^^^^^^^^^^^^^/({_",
"{]]]]]^^^^^^^^^^^^^^^^~<<~^^^^^^^^^^^^^^^^^^/({_",
"{]]]]]^^^^^^^^^^^^^^^~~<<~~^^^^^^^^^^^^^^^^^/({_",
"{]]]]]^^^^^^~~~~~~~~~~<<<<~~~~~~~~~~^^^^^^^^/({_",
"{]]]]]^^^^^^^~~~<<<<<<<<<<<<<<<<~~~^^^^^^^^^/({_",
"{]]]]]^^^^^^^^^~~:<<<<<<<<<<<<:~~^^^^^^^^^^^/({_",
"{]]]]]^^^^^^^^^^~~~<<<<<<<<<<~~~^^^^^^^^^^^^/({_",
"{]]]]]^^^^^^^^^^^^~~<<<<<<<<~~^^^^^^^^^^^^^^/({_",
"{]]]]]^^^^^^^^^^^^^~:<<<<<<:~^^^^^^^^^^^^^^^/({_",
"{]]]]]^^^^^^^^^^^^^~:<<<<<<:~^^^^^^^^^^^^^^^/({_",
"{]]]]]^^^^^^^^^^^^^~<<<::<<<~^^^^^^^^^^^^^^^/({_",
"{]]]]]^^^^^^^^^^^^~~<<~~~~<<~~^^^^^^^^^^^^^^/({_",
"{]]]]]^^^^^^^^^^^^~<<~~^^~~<<~^^^^^^^^^^^^^^/({_",
"{]]]]]^^^^^^^^^^^^~:~~^^^^~~:~^^^^^^^^^^^^^^/({_",
"{]]]]]^^^^^^^^^^^~~~^^^^^^^^~~~^^^^^^^^^^^^^/({_",
"[}}}}}<<<<<<<<<<<~~<<<<<<<<<<~~<<<<<<<<<<<<<|1[2",
"[}}}}}<<<<<<<<<<:~<<<<<<<<<<<<~:<<<<<<<<<<<<|1[2",
"[}}}}}<<<<<<<<<<~<<<<<<<<<<<<<<~<<<<<<<<<<<<|1[2",
"[}}}}}<<<<<<<<<<<<<<<<<<<<<<<<<<<<<<<<<<<<<<|1[2",
"[}}}}}<<<<<<<<<<<<<<<<<<<<<<<<<<<<<<<<<<<<<<|1[2",
"[}}}}}<<<<<<<<<<<<<<<<<<<<<<<<<<<<<<<<<<<<<<|1[2",
"[}}}}}<<<<<<<<<<<<<<<<<<<<<<<<<<<<<<<<<<<<<<|1[2",
"[}}}}}<<<<<<<<<<<<<<<<<<<<<<<<<<<<<<<<<<<<<<|1[2",
"[}}}}}<<<<<<<<<<<<<<<<<<<<<<<<<<<<<<<<<<<<<<|1[2",
"[}}}}}<<<<<<<<<<<<<<<<<<<<<<<<<<<<<<<<<<<<<<|1[2",
"[}}}}}<<<<<<<<<<<<<<<<<<<<<<<<<<<<<<<<<<<<<<|1[2",
"[}}}}}<<<<<<<<<<<<<<<<<<<<<<<<<<<<<<<<<<<<<<|1[2",
"[}}}}34444444444444444444444444444444444444441[2",
"[}}}|56666666666666666666666666666666666666666[2",
"[}}7899999999999999999999999999999999999999990a2",
"bcdeffffffffffffffffffffffffffffffffffffffffffgh"};
